%YAML 1.1
%TAG !u! tag:unity3d.com,2011:
--- !u!1001 &100100000
Prefab:
  m_ObjectHideFlags: 1
  serializedVersion: 2
  m_Modification:
    m_TransformParent: {fileID: 0}
    m_Modifications: []
    m_RemovedComponents: []
  m_SourcePrefab: {fileID: 0}
  m_RootGameObject: {fileID: 1174843720171950}
  m_IsPrefabAsset: 1
--- !u!1 &1174843720171950
GameObject:
  m_ObjectHideFlags: 0
  m_CorrespondingSourceObject: {fileID: 0}
  m_PrefabInternal: {fileID: 100100000}
  serializedVersion: 6
  m_Component:
  - component: {fileID: 4178633185617420}
  - component: {fileID: 2569400265494603570}
  m_Layer: 31
  m_Name: Castle
  m_TagString: Untagged
  m_Icon: {fileID: 0}
  m_NavMeshLayer: 0
  m_StaticEditorFlags: 0
  m_IsActive: 1
--- !u!1 &1241533124763940
GameObject:
  m_ObjectHideFlags: 0
  m_CorrespondingSourceObject: {fileID: 0}
  m_PrefabInternal: {fileID: 100100000}
  serializedVersion: 6
  m_Component:
  - component: {fileID: 4828911725424706}
  - component: {fileID: 8195094281827437576}
  - component: {fileID: 3664157344372912462}
  m_Layer: 31
  m_Name: Layer1
  m_TagString: Untagged
  m_Icon: {fileID: 0}
  m_NavMeshLayer: 0
  m_StaticEditorFlags: 0
  m_IsActive: 1
--- !u!4 &4178633185617420
Transform:
  m_ObjectHideFlags: 1
  m_CorrespondingSourceObject: {fileID: 0}
  m_PrefabInternal: {fileID: 100100000}
  m_GameObject: {fileID: 1174843720171950}
  m_LocalRotation: {x: 0, y: 0, z: 0, w: 1}
  m_LocalPosition: {x: 0, y: 0, z: 0}
  m_LocalScale: {x: 1, y: 1, z: 1}
  m_Children:
  - {fileID: 4828911725424706}
  m_Father: {fileID: 0}
  m_RootOrder: 0
  m_LocalEulerAnglesHint: {x: 0, y: 0, z: 0}
--- !u!4 &4828911725424706
Transform:
  m_ObjectHideFlags: 1
  m_CorrespondingSourceObject: {fileID: 0}
  m_PrefabInternal: {fileID: 100100000}
  m_GameObject: {fileID: 1241533124763940}
  m_LocalRotation: {x: -0, y: -0, z: -0, w: 1}
  m_LocalPosition: {x: 0, y: 0, z: 0}
  m_LocalScale: {x: 1, y: 1, z: 1}
  m_Children: []
  m_Father: {fileID: 4178633185617420}
  m_RootOrder: 0
  m_LocalEulerAnglesHint: {x: 0, y: 0, z: 0}
--- !u!114 &114874677494204926
MonoBehaviour:
  m_ObjectHideFlags: 0
  m_CorrespondingSourceObject: {fileID: 0}
  m_PrefabInternal: {fileID: 0}
  m_GameObject: {fileID: 0}
  m_Enabled: 1
  m_EditorHideFlags: 1
  m_Script: {fileID: 12395, guid: 0000000000000000e000000000000000, type: 0}
  m_Name: Palette Settings
  m_EditorClassIdentifier: 
  cellSizing: 0
--- !u!156049354 &2569400265494603570
Grid:
  m_ObjectHideFlags: 1
  m_CorrespondingSourceObject: {fileID: 0}
  m_PrefabInternal: {fileID: 100100000}
  m_GameObject: {fileID: 1174843720171950}
  m_Enabled: 1
  m_CellSize: {x: 32, y: 32, z: 0}
  m_CellGap: {x: 0, y: 0, z: 0}
  m_CellLayout: 0
  m_CellSwizzle: 0
--- !u!483693784 &3664157344372912462
TilemapRenderer:
  m_ObjectHideFlags: 1
  m_CorrespondingSourceObject: {fileID: 0}
  m_PrefabInternal: {fileID: 100100000}
  m_GameObject: {fileID: 1241533124763940}
  m_Enabled: 0
  m_CastShadows: 0
  m_ReceiveShadows: 0
  m_DynamicOccludee: 0
  m_MotionVectors: 1
  m_LightProbeUsage: 0
  m_ReflectionProbeUsage: 0
  m_RenderingLayerMask: 4294967295
  m_Materials:
  - {fileID: 10754, guid: 0000000000000000f000000000000000, type: 0}
  m_StaticBatchInfo:
    firstSubMesh: 0
    subMeshCount: 0
  m_StaticBatchRoot: {fileID: 0}
  m_ProbeAnchor: {fileID: 0}
  m_LightProbeVolumeOverride: {fileID: 0}
  m_ScaleInLightmap: 1
  m_PreserveUVs: 0
  m_IgnoreNormalsForChartDetection: 0
  m_ImportantGI: 0
  m_StitchLightmapSeams: 0
  m_SelectedEditorRenderState: 0
  m_MinimumChartSize: 4
  m_AutoUVMaxDistance: 0.5
  m_AutoUVMaxAngle: 89
  m_LightmapParameters: {fileID: 0}
  m_SortingLayerID: 0
  m_SortingLayer: 0
  m_SortingOrder: 0
  m_ChunkSize: {x: 32, y: 32, z: 32}
  m_ChunkCullingBounds: {x: 0, y: 0, z: 0}
  m_MaxChunkCount: 16
  m_MaxFrameAge: 16
  m_SortOrder: 0
  m_DetectChunkCullingBounds: 0
  m_MaskInteraction: 0
--- !u!1839735485 &8195094281827437576
Tilemap:
  m_ObjectHideFlags: 1
  m_CorrespondingSourceObject: {fileID: 0}
  m_PrefabInternal: {fileID: 100100000}
  m_GameObject: {fileID: 1241533124763940}
  m_Enabled: 1
  m_Tiles:
  - first: {x: -2, y: 2, z: 0}
    second:
      m_TileIndex: 0
      m_TileSpriteIndex: 0
      m_TileMatrixIndex: 0
      m_TileColorIndex: 0
      m_ObjectToInstantiate: {fileID: 0}
      m_TileFlags: 1
      m_ColliderType: 1
  - first: {x: -49, y: 27, z: 0}
    second:
      m_TileIndex: 182
      m_TileSpriteIndex: 182
      m_TileMatrixIndex: 0
      m_TileColorIndex: 0
      m_ObjectToInstantiate: {fileID: 0}
      m_TileFlags: 1
      m_ColliderType: 1
  - first: {x: -48, y: 27, z: 0}
    second:
      m_TileIndex: 183
      m_TileSpriteIndex: 183
      m_TileMatrixIndex: 0
      m_TileColorIndex: 0
      m_ObjectToInstantiate: {fileID: 0}
      m_TileFlags: 1
      m_ColliderType: 1
  - first: {x: -47, y: 27, z: 0}
    second:
      m_TileIndex: 184
      m_TileSpriteIndex: 184
      m_TileMatrixIndex: 0
      m_TileColorIndex: 0
      m_ObjectToInstantiate: {fileID: 0}
      m_TileFlags: 1
      m_ColliderType: 1
  - first: {x: -46, y: 27, z: 0}
    second:
      m_TileIndex: 185
      m_TileSpriteIndex: 185
      m_TileMatrixIndex: 0
      m_TileColorIndex: 0
      m_ObjectToInstantiate: {fileID: 0}
      m_TileFlags: 1
      m_ColliderType: 1
  - first: {x: -45, y: 27, z: 0}
    second:
      m_TileIndex: 186
      m_TileSpriteIndex: 186
      m_TileMatrixIndex: 0
      m_TileColorIndex: 0
      m_ObjectToInstantiate: {fileID: 0}
      m_TileFlags: 1
      m_ColliderType: 1
  - first: {x: -44, y: 27, z: 0}
    second:
      m_TileIndex: 187
      m_TileSpriteIndex: 187
      m_TileMatrixIndex: 0
      m_TileColorIndex: 0
      m_ObjectToInstantiate: {fileID: 0}
      m_TileFlags: 1
      m_ColliderType: 1
  - first: {x: -43, y: 27, z: 0}
    second:
      m_TileIndex: 188
      m_TileSpriteIndex: 188
      m_TileMatrixIndex: 0
      m_TileColorIndex: 0
      m_ObjectToInstantiate: {fileID: 0}
      m_TileFlags: 1
      m_ColliderType: 1
  - first: {x: -42, y: 27, z: 0}
    second:
      m_TileIndex: 189
      m_TileSpriteIndex: 189
      m_TileMatrixIndex: 0
      m_TileColorIndex: 0
      m_ObjectToInstantiate: {fileID: 0}
      m_TileFlags: 1
      m_ColliderType: 1
  - first: {x: -41, y: 27, z: 0}
    second:
      m_TileIndex: 190
      m_TileSpriteIndex: 190
      m_TileMatrixIndex: 0
      m_TileColorIndex: 0
      m_ObjectToInstantiate: {fileID: 0}
      m_TileFlags: 1
      m_ColliderType: 1
  - first: {x: -40, y: 27, z: 0}
    second:
      m_TileIndex: 191
      m_TileSpriteIndex: 191
      m_TileMatrixIndex: 0
      m_TileColorIndex: 0
      m_ObjectToInstantiate: {fileID: 0}
      m_TileFlags: 1
      m_ColliderType: 1
  - first: {x: -39, y: 27, z: 0}
    second:
      m_TileIndex: 192
      m_TileSpriteIndex: 192
      m_TileMatrixIndex: 0
      m_TileColorIndex: 0
      m_ObjectToInstantiate: {fileID: 0}
      m_TileFlags: 1
      m_ColliderType: 1
  - first: {x: -38, y: 27, z: 0}
    second:
      m_TileIndex: 193
      m_TileSpriteIndex: 193
      m_TileMatrixIndex: 0
      m_TileColorIndex: 0
      m_ObjectToInstantiate: {fileID: 0}
      m_TileFlags: 1
      m_ColliderType: 1
  - first: {x: -37, y: 27, z: 0}
    second:
      m_TileIndex: 194
      m_TileSpriteIndex: 194
      m_TileMatrixIndex: 0
      m_TileColorIndex: 0
      m_ObjectToInstantiate: {fileID: 0}
      m_TileFlags: 1
      m_ColliderType: 1
  - first: {x: -36, y: 27, z: 0}
    second:
      m_TileIndex: 195
      m_TileSpriteIndex: 195
      m_TileMatrixIndex: 0
      m_TileColorIndex: 0
      m_ObjectToInstantiate: {fileID: 0}
      m_TileFlags: 1
      m_ColliderType: 1
  - first: {x: -35, y: 27, z: 0}
    second:
      m_TileIndex: 196
      m_TileSpriteIndex: 196
      m_TileMatrixIndex: 0
      m_TileColorIndex: 0
      m_ObjectToInstantiate: {fileID: 0}
      m_TileFlags: 1
      m_ColliderType: 1
  - first: {x: -49, y: 28, z: 0}
    second:
      m_TileIndex: 168
      m_TileSpriteIndex: 168
      m_TileMatrixIndex: 0
      m_TileColorIndex: 0
      m_ObjectToInstantiate: {fileID: 0}
      m_TileFlags: 1
      m_ColliderType: 1
  - first: {x: -48, y: 28, z: 0}
    second:
      m_TileIndex: 169
      m_TileSpriteIndex: 169
      m_TileMatrixIndex: 0
      m_TileColorIndex: 0
      m_ObjectToInstantiate: {fileID: 0}
      m_TileFlags: 1
      m_ColliderType: 1
  - first: {x: -47, y: 28, z: 0}
    second:
      m_TileIndex: 170
      m_TileSpriteIndex: 170
      m_TileMatrixIndex: 0
      m_TileColorIndex: 0
      m_ObjectToInstantiate: {fileID: 0}
      m_TileFlags: 1
      m_ColliderType: 1
  - first: {x: -46, y: 28, z: 0}
    second:
      m_TileIndex: 171
      m_TileSpriteIndex: 171
      m_TileMatrixIndex: 0
      m_TileColorIndex: 0
      m_ObjectToInstantiate: {fileID: 0}
      m_TileFlags: 1
      m_ColliderType: 1
  - first: {x: -44, y: 28, z: 0}
    second:
      m_TileIndex: 172
      m_TileSpriteIndex: 172
      m_TileMatrixIndex: 0
      m_TileColorIndex: 0
      m_ObjectToInstantiate: {fileID: 0}
      m_TileFlags: 1
      m_ColliderType: 1
  - first: {x: -43, y: 28, z: 0}
    second:
      m_TileIndex: 173
      m_TileSpriteIndex: 173
      m_TileMatrixIndex: 0
      m_TileColorIndex: 0
      m_ObjectToInstantiate: {fileID: 0}
      m_TileFlags: 1
      m_ColliderType: 1
  - first: {x: -42, y: 28, z: 0}
    second:
      m_TileIndex: 174
      m_TileSpriteIndex: 174
      m_TileMatrixIndex: 0
      m_TileColorIndex: 0
      m_ObjectToInstantiate: {fileID: 0}
      m_TileFlags: 1
      m_ColliderType: 1
  - first: {x: -41, y: 28, z: 0}
    second:
      m_TileIndex: 175
      m_TileSpriteIndex: 175
      m_TileMatrixIndex: 0
      m_TileColorIndex: 0
      m_ObjectToInstantiate: {fileID: 0}
      m_TileFlags: 1
      m_ColliderType: 1
  - first: {x: -40, y: 28, z: 0}
    second:
      m_TileIndex: 176
      m_TileSpriteIndex: 176
      m_TileMatrixIndex: 0
      m_TileColorIndex: 0
      m_ObjectToInstantiate: {fileID: 0}
      m_TileFlags: 1
      m_ColliderType: 1
  - first: {x: -39, y: 28, z: 0}
    second:
      m_TileIndex: 177
      m_TileSpriteIndex: 177
      m_TileMatrixIndex: 0
      m_TileColorIndex: 0
      m_ObjectToInstantiate: {fileID: 0}
      m_TileFlags: 1
      m_ColliderType: 1
  - first: {x: -38, y: 28, z: 0}
    second:
      m_TileIndex: 178
      m_TileSpriteIndex: 178
      m_TileMatrixIndex: 0
      m_TileColorIndex: 0
      m_ObjectToInstantiate: {fileID: 0}
      m_TileFlags: 1
      m_ColliderType: 1
  - first: {x: -37, y: 28, z: 0}
    second:
      m_TileIndex: 179
      m_TileSpriteIndex: 179
      m_TileMatrixIndex: 0
      m_TileColorIndex: 0
      m_ObjectToInstantiate: {fileID: 0}
      m_TileFlags: 1
      m_ColliderType: 1
  - first: {x: -36, y: 28, z: 0}
    second:
      m_TileIndex: 180
      m_TileSpriteIndex: 180
      m_TileMatrixIndex: 0
      m_TileColorIndex: 0
      m_ObjectToInstantiate: {fileID: 0}
      m_TileFlags: 1
      m_ColliderType: 1
  - first: {x: -35, y: 28, z: 0}
    second:
      m_TileIndex: 181
      m_TileSpriteIndex: 181
      m_TileMatrixIndex: 0
      m_TileColorIndex: 0
      m_ObjectToInstantiate: {fileID: 0}
      m_TileFlags: 1
      m_ColliderType: 1
  - first: {x: -49, y: 29, z: 0}
    second:
      m_TileIndex: 156
      m_TileSpriteIndex: 156
      m_TileMatrixIndex: 0
      m_TileColorIndex: 0
      m_ObjectToInstantiate: {fileID: 0}
      m_TileFlags: 1
      m_ColliderType: 1
  - first: {x: -48, y: 29, z: 0}
    second:
      m_TileIndex: 157
      m_TileSpriteIndex: 157
      m_TileMatrixIndex: 0
      m_TileColorIndex: 0
      m_ObjectToInstantiate: {fileID: 0}
      m_TileFlags: 1
      m_ColliderType: 1
  - first: {x: -47, y: 29, z: 0}
    second:
      m_TileIndex: 158
      m_TileSpriteIndex: 158
      m_TileMatrixIndex: 0
      m_TileColorIndex: 0
      m_ObjectToInstantiate: {fileID: 0}
      m_TileFlags: 1
      m_ColliderType: 1
  - first: {x: -46, y: 29, z: 0}
    second:
      m_TileIndex: 159
      m_TileSpriteIndex: 159
      m_TileMatrixIndex: 0
      m_TileColorIndex: 0
      m_ObjectToInstantiate: {fileID: 0}
      m_TileFlags: 1
      m_ColliderType: 1
  - first: {x: -43, y: 29, z: 0}
    second:
      m_TileIndex: 160
      m_TileSpriteIndex: 160
      m_TileMatrixIndex: 0
      m_TileColorIndex: 0
      m_ObjectToInstantiate: {fileID: 0}
      m_TileFlags: 1
      m_ColliderType: 1
  - first: {x: -42, y: 29, z: 0}
    second:
      m_TileIndex: 161
      m_TileSpriteIndex: 161
      m_TileMatrixIndex: 0
      m_TileColorIndex: 0
      m_ObjectToInstantiate: {fileID: 0}
      m_TileFlags: 1
      m_ColliderType: 1
  - first: {x: -40, y: 29, z: 0}
    second:
      m_TileIndex: 162
      m_TileSpriteIndex: 162
      m_TileMatrixIndex: 0
      m_TileColorIndex: 0
      m_ObjectToInstantiate: {fileID: 0}
      m_TileFlags: 1
      m_ColliderType: 1
  - first: {x: -39, y: 29, z: 0}
    second:
      m_TileIndex: 163
      m_TileSpriteIndex: 163
      m_TileMatrixIndex: 0
      m_TileColorIndex: 0
      m_ObjectToInstantiate: {fileID: 0}
      m_TileFlags: 1
      m_ColliderType: 1
  - first: {x: -38, y: 29, z: 0}
    second:
      m_TileIndex: 164
      m_TileSpriteIndex: 164
      m_TileMatrixIndex: 0
      m_TileColorIndex: 0
      m_ObjectToInstantiate: {fileID: 0}
      m_TileFlags: 1
      m_ColliderType: 1
  - first: {x: -37, y: 29, z: 0}
    second:
      m_TileIndex: 165
      m_TileSpriteIndex: 165
      m_TileMatrixIndex: 0
      m_TileColorIndex: 0
      m_ObjectToInstantiate: {fileID: 0}
      m_TileFlags: 1
      m_ColliderType: 1
  - first: {x: -36, y: 29, z: 0}
    second:
      m_TileIndex: 166
      m_TileSpriteIndex: 166
      m_TileMatrixIndex: 0
      m_TileColorIndex: 0
      m_ObjectToInstantiate: {fileID: 0}
      m_TileFlags: 1
      m_ColliderType: 1
  - first: {x: -35, y: 29, z: 0}
    second:
      m_TileIndex: 167
      m_TileSpriteIndex: 167
      m_TileMatrixIndex: 0
      m_TileColorIndex: 0
      m_ObjectToInstantiate: {fileID: 0}
      m_TileFlags: 1
      m_ColliderType: 1
  - first: {x: -49, y: 30, z: 0}
    second:
      m_TileIndex: 143
      m_TileSpriteIndex: 143
      m_TileMatrixIndex: 0
      m_TileColorIndex: 0
      m_ObjectToInstantiate: {fileID: 0}
      m_TileFlags: 1
      m_ColliderType: 1
  - first: {x: -48, y: 30, z: 0}
    second:
      m_TileIndex: 144
      m_TileSpriteIndex: 144
      m_TileMatrixIndex: 0
      m_TileColorIndex: 0
      m_ObjectToInstantiate: {fileID: 0}
      m_TileFlags: 1
      m_ColliderType: 1
  - first: {x: -47, y: 30, z: 0}
    second:
      m_TileIndex: 145
      m_TileSpriteIndex: 145
      m_TileMatrixIndex: 0
      m_TileColorIndex: 0
      m_ObjectToInstantiate: {fileID: 0}
      m_TileFlags: 1
      m_ColliderType: 1
  - first: {x: -46, y: 30, z: 0}
    second:
      m_TileIndex: 146
      m_TileSpriteIndex: 146
      m_TileMatrixIndex: 0
      m_TileColorIndex: 0
      m_ObjectToInstantiate: {fileID: 0}
      m_TileFlags: 1
      m_ColliderType: 1
  - first: {x: -45, y: 30, z: 0}
    second:
      m_TileIndex: 147
      m_TileSpriteIndex: 147
      m_TileMatrixIndex: 0
      m_TileColorIndex: 0
      m_ObjectToInstantiate: {fileID: 0}
      m_TileFlags: 1
      m_ColliderType: 1
  - first: {x: -44, y: 30, z: 0}
    second:
      m_TileIndex: 148
      m_TileSpriteIndex: 148
      m_TileMatrixIndex: 0
      m_TileColorIndex: 0
      m_ObjectToInstantiate: {fileID: 0}
      m_TileFlags: 1
      m_ColliderType: 1
  - first: {x: -43, y: 30, z: 0}
    second:
      m_TileIndex: 149
      m_TileSpriteIndex: 149
      m_TileMatrixIndex: 0
      m_TileColorIndex: 0
      m_ObjectToInstantiate: {fileID: 0}
      m_TileFlags: 1
      m_ColliderType: 1
  - first: {x: -40, y: 30, z: 0}
    second:
      m_TileIndex: 150
      m_TileSpriteIndex: 150
      m_TileMatrixIndex: 0
      m_TileColorIndex: 0
      m_ObjectToInstantiate: {fileID: 0}
      m_TileFlags: 1
      m_ColliderType: 1
  - first: {x: -39, y: 30, z: 0}
    second:
      m_TileIndex: 151
      m_TileSpriteIndex: 151
      m_TileMatrixIndex: 0
      m_TileColorIndex: 0
      m_ObjectToInstantiate: {fileID: 0}
      m_TileFlags: 1
      m_ColliderType: 1
  - first: {x: -38, y: 30, z: 0}
    second:
      m_TileIndex: 152
      m_TileSpriteIndex: 152
      m_TileMatrixIndex: 0
      m_TileColorIndex: 0
      m_ObjectToInstantiate: {fileID: 0}
      m_TileFlags: 1
      m_ColliderType: 1
  - first: {x: -37, y: 30, z: 0}
    second:
      m_TileIndex: 153
      m_TileSpriteIndex: 153
      m_TileMatrixIndex: 0
      m_TileColorIndex: 0
      m_ObjectToInstantiate: {fileID: 0}
      m_TileFlags: 1
      m_ColliderType: 1
  - first: {x: -36, y: 30, z: 0}
    second:
      m_TileIndex: 154
      m_TileSpriteIndex: 154
      m_TileMatrixIndex: 0
      m_TileColorIndex: 0
      m_ObjectToInstantiate: {fileID: 0}
      m_TileFlags: 1
      m_ColliderType: 1
  - first: {x: -35, y: 30, z: 0}
    second:
      m_TileIndex: 155
      m_TileSpriteIndex: 155
      m_TileMatrixIndex: 0
      m_TileColorIndex: 0
      m_ObjectToInstantiate: {fileID: 0}
      m_TileFlags: 1
      m_ColliderType: 1
  - first: {x: -49, y: 31, z: 0}
    second:
      m_TileIndex: 130
      m_TileSpriteIndex: 130
      m_TileMatrixIndex: 0
      m_TileColorIndex: 0
      m_ObjectToInstantiate: {fileID: 0}
      m_TileFlags: 1
      m_ColliderType: 1
  - first: {x: -48, y: 31, z: 0}
    second:
      m_TileIndex: 131
      m_TileSpriteIndex: 131
      m_TileMatrixIndex: 0
      m_TileColorIndex: 0
      m_ObjectToInstantiate: {fileID: 0}
      m_TileFlags: 1
      m_ColliderType: 1
  - first: {x: -47, y: 31, z: 0}
    second:
      m_TileIndex: 132
      m_TileSpriteIndex: 132
      m_TileMatrixIndex: 0
      m_TileColorIndex: 0
      m_ObjectToInstantiate: {fileID: 0}
      m_TileFlags: 1
      m_ColliderType: 1
  - first: {x: -46, y: 31, z: 0}
    second:
      m_TileIndex: 133
      m_TileSpriteIndex: 133
      m_TileMatrixIndex: 0
      m_TileColorIndex: 0
      m_ObjectToInstantiate: {fileID: 0}
      m_TileFlags: 1
      m_ColliderType: 1
  - first: {x: -45, y: 31, z: 0}
    second:
      m_TileIndex: 134
      m_TileSpriteIndex: 134
      m_TileMatrixIndex: 0
      m_TileColorIndex: 0
      m_ObjectToInstantiate: {fileID: 0}
      m_TileFlags: 1
      m_ColliderType: 1
  - first: {x: -44, y: 31, z: 0}
    second:
      m_TileIndex: 135
      m_TileSpriteIndex: 135
      m_TileMatrixIndex: 0
      m_TileColorIndex: 0
      m_ObjectToInstantiate: {fileID: 0}
      m_TileFlags: 1
      m_ColliderType: 1
  - first: {x: -43, y: 31, z: 0}
    second:
      m_TileIndex: 136
      m_TileSpriteIndex: 136
      m_TileMatrixIndex: 0
      m_TileColorIndex: 0
      m_ObjectToInstantiate: {fileID: 0}
      m_TileFlags: 1
      m_ColliderType: 1
  - first: {x: -42, y: 31, z: 0}
    second:
      m_TileIndex: 137
      m_TileSpriteIndex: 137
      m_TileMatrixIndex: 0
      m_TileColorIndex: 0
      m_ObjectToInstantiate: {fileID: 0}
      m_TileFlags: 1
      m_ColliderType: 1
  - first: {x: -41, y: 31, z: 0}
    second:
      m_TileIndex: 138
      m_TileSpriteIndex: 138
      m_TileMatrixIndex: 0
      m_TileColorIndex: 0
      m_ObjectToInstantiate: {fileID: 0}
      m_TileFlags: 1
      m_ColliderType: 1
  - first: {x: -40, y: 31, z: 0}
    second:
      m_TileIndex: 139
      m_TileSpriteIndex: 139
      m_TileMatrixIndex: 0
      m_TileColorIndex: 0
      m_ObjectToInstantiate: {fileID: 0}
      m_TileFlags: 1
      m_ColliderType: 1
  - first: {x: -39, y: 31, z: 0}
    second:
      m_TileIndex: 140
      m_TileSpriteIndex: 140
      m_TileMatrixIndex: 0
      m_TileColorIndex: 0
      m_ObjectToInstantiate: {fileID: 0}
      m_TileFlags: 1
      m_ColliderType: 1
  - first: {x: -38, y: 31, z: 0}
    second:
      m_TileIndex: 141
      m_TileSpriteIndex: 141
      m_TileMatrixIndex: 0
      m_TileColorIndex: 0
      m_ObjectToInstantiate: {fileID: 0}
      m_TileFlags: 1
      m_ColliderType: 1
  - first: {x: -37, y: 31, z: 0}
    second:
      m_TileIndex: 142
      m_TileSpriteIndex: 142
      m_TileMatrixIndex: 0
      m_TileColorIndex: 0
      m_ObjectToInstantiate: {fileID: 0}
      m_TileFlags: 1
      m_ColliderType: 1
  - first: {x: -49, y: 32, z: 0}
    second:
      m_TileIndex: 118
      m_TileSpriteIndex: 118
      m_TileMatrixIndex: 0
      m_TileColorIndex: 0
      m_ObjectToInstantiate: {fileID: 0}
      m_TileFlags: 1
      m_ColliderType: 1
  - first: {x: -48, y: 32, z: 0}
    second:
      m_TileIndex: 119
      m_TileSpriteIndex: 119
      m_TileMatrixIndex: 0
      m_TileColorIndex: 0
      m_ObjectToInstantiate: {fileID: 0}
      m_TileFlags: 1
      m_ColliderType: 1
  - first: {x: -47, y: 32, z: 0}
    second:
      m_TileIndex: 120
      m_TileSpriteIndex: 120
      m_TileMatrixIndex: 0
      m_TileColorIndex: 0
      m_ObjectToInstantiate: {fileID: 0}
      m_TileFlags: 1
      m_ColliderType: 1
  - first: {x: -46, y: 32, z: 0}
    second:
      m_TileIndex: 121
      m_TileSpriteIndex: 121
      m_TileMatrixIndex: 0
      m_TileColorIndex: 0
      m_ObjectToInstantiate: {fileID: 0}
      m_TileFlags: 1
      m_ColliderType: 1
  - first: {x: -44, y: 32, z: 0}
    second:
      m_TileIndex: 122
      m_TileSpriteIndex: 122
      m_TileMatrixIndex: 0
      m_TileColorIndex: 0
      m_ObjectToInstantiate: {fileID: 0}
      m_TileFlags: 1
      m_ColliderType: 1
  - first: {x: -43, y: 32, z: 0}
    second:
      m_TileIndex: 123
      m_TileSpriteIndex: 123
      m_TileMatrixIndex: 0
      m_TileColorIndex: 0
      m_ObjectToInstantiate: {fileID: 0}
      m_TileFlags: 1
      m_ColliderType: 1
  - first: {x: -42, y: 32, z: 0}
    second:
      m_TileIndex: 124
      m_TileSpriteIndex: 124
      m_TileMatrixIndex: 0
      m_TileColorIndex: 0
      m_ObjectToInstantiate: {fileID: 0}
      m_TileFlags: 1
      m_ColliderType: 1
  - first: {x: -41, y: 32, z: 0}
    second:
      m_TileIndex: 125
      m_TileSpriteIndex: 125
      m_TileMatrixIndex: 0
      m_TileColorIndex: 0
      m_ObjectToInstantiate: {fileID: 0}
      m_TileFlags: 1
      m_ColliderType: 1
  - first: {x: -40, y: 32, z: 0}
    second:
      m_TileIndex: 126
      m_TileSpriteIndex: 126
      m_TileMatrixIndex: 0
      m_TileColorIndex: 0
      m_ObjectToInstantiate: {fileID: 0}
      m_TileFlags: 1
      m_ColliderType: 1
  - first: {x: -39, y: 32, z: 0}
    second:
      m_TileIndex: 127
      m_TileSpriteIndex: 127
      m_TileMatrixIndex: 0
      m_TileColorIndex: 0
      m_ObjectToInstantiate: {fileID: 0}
      m_TileFlags: 1
      m_ColliderType: 1
  - first: {x: -38, y: 32, z: 0}
    second:
      m_TileIndex: 128
      m_TileSpriteIndex: 128
      m_TileMatrixIndex: 0
      m_TileColorIndex: 0
      m_ObjectToInstantiate: {fileID: 0}
      m_TileFlags: 1
      m_ColliderType: 1
  - first: {x: -37, y: 32, z: 0}
    second:
      m_TileIndex: 129
      m_TileSpriteIndex: 129
      m_TileMatrixIndex: 0
      m_TileColorIndex: 0
      m_ObjectToInstantiate: {fileID: 0}
      m_TileFlags: 1
      m_ColliderType: 1
  - first: {x: -49, y: 33, z: 0}
    second:
      m_TileIndex: 104
      m_TileSpriteIndex: 104
      m_TileMatrixIndex: 0
      m_TileColorIndex: 0
      m_ObjectToInstantiate: {fileID: 0}
      m_TileFlags: 1
      m_ColliderType: 1
  - first: {x: -48, y: 33, z: 0}
    second:
      m_TileIndex: 105
      m_TileSpriteIndex: 105
      m_TileMatrixIndex: 0
      m_TileColorIndex: 0
      m_ObjectToInstantiate: {fileID: 0}
      m_TileFlags: 1
      m_ColliderType: 1
  - first: {x: -47, y: 33, z: 0}
    second:
      m_TileIndex: 106
      m_TileSpriteIndex: 106
      m_TileMatrixIndex: 0
      m_TileColorIndex: 0
      m_ObjectToInstantiate: {fileID: 0}
      m_TileFlags: 1
      m_ColliderType: 1
  - first: {x: -46, y: 33, z: 0}
    second:
      m_TileIndex: 107
      m_TileSpriteIndex: 107
      m_TileMatrixIndex: 0
      m_TileColorIndex: 0
      m_ObjectToInstantiate: {fileID: 0}
      m_TileFlags: 1
      m_ColliderType: 1
  - first: {x: -45, y: 33, z: 0}
    second:
      m_TileIndex: 108
      m_TileSpriteIndex: 108
      m_TileMatrixIndex: 0
      m_TileColorIndex: 0
      m_ObjectToInstantiate: {fileID: 0}
      m_TileFlags: 1
      m_ColliderType: 1
  - first: {x: -44, y: 33, z: 0}
    second:
      m_TileIndex: 109
      m_TileSpriteIndex: 109
      m_TileMatrixIndex: 0
      m_TileColorIndex: 0
      m_ObjectToInstantiate: {fileID: 0}
      m_TileFlags: 1
      m_ColliderType: 1
  - first: {x: -43, y: 33, z: 0}
    second:
      m_TileIndex: 110
      m_TileSpriteIndex: 110
      m_TileMatrixIndex: 0
      m_TileColorIndex: 0
      m_ObjectToInstantiate: {fileID: 0}
      m_TileFlags: 1
      m_ColliderType: 1
  - first: {x: -42, y: 33, z: 0}
    second:
      m_TileIndex: 111
      m_TileSpriteIndex: 111
      m_TileMatrixIndex: 0
      m_TileColorIndex: 0
      m_ObjectToInstantiate: {fileID: 0}
      m_TileFlags: 1
      m_ColliderType: 1
  - first: {x: -41, y: 33, z: 0}
    second:
      m_TileIndex: 112
      m_TileSpriteIndex: 112
      m_TileMatrixIndex: 0
      m_TileColorIndex: 0
      m_ObjectToInstantiate: {fileID: 0}
      m_TileFlags: 1
      m_ColliderType: 1
  - first: {x: -40, y: 33, z: 0}
    second:
      m_TileIndex: 113
      m_TileSpriteIndex: 113
      m_TileMatrixIndex: 0
      m_TileColorIndex: 0
      m_ObjectToInstantiate: {fileID: 0}
      m_TileFlags: 1
      m_ColliderType: 1
  - first: {x: -39, y: 33, z: 0}
    second:
      m_TileIndex: 114
      m_TileSpriteIndex: 114
      m_TileMatrixIndex: 0
      m_TileColorIndex: 0
      m_ObjectToInstantiate: {fileID: 0}
      m_TileFlags: 1
      m_ColliderType: 1
  - first: {x: -38, y: 33, z: 0}
    second:
      m_TileIndex: 115
      m_TileSpriteIndex: 115
      m_TileMatrixIndex: 0
      m_TileColorIndex: 0
      m_ObjectToInstantiate: {fileID: 0}
      m_TileFlags: 1
      m_ColliderType: 1
  - first: {x: -37, y: 33, z: 0}
    second:
      m_TileIndex: 116
      m_TileSpriteIndex: 116
      m_TileMatrixIndex: 0
      m_TileColorIndex: 0
      m_ObjectToInstantiate: {fileID: 0}
      m_TileFlags: 1
      m_ColliderType: 1
  - first: {x: -36, y: 33, z: 0}
    second:
      m_TileIndex: 117
      m_TileSpriteIndex: 117
      m_TileMatrixIndex: 0
      m_TileColorIndex: 0
      m_ObjectToInstantiate: {fileID: 0}
      m_TileFlags: 1
      m_ColliderType: 1
  - first: {x: -49, y: 34, z: 0}
    second:
      m_TileIndex: 92
      m_TileSpriteIndex: 92
      m_TileMatrixIndex: 0
      m_TileColorIndex: 0
      m_ObjectToInstantiate: {fileID: 0}
      m_TileFlags: 1
      m_ColliderType: 1
  - first: {x: -48, y: 34, z: 0}
    second:
      m_TileIndex: 93
      m_TileSpriteIndex: 93
      m_TileMatrixIndex: 0
      m_TileColorIndex: 0
      m_ObjectToInstantiate: {fileID: 0}
      m_TileFlags: 1
      m_ColliderType: 1
  - first: {x: -47, y: 34, z: 0}
    second:
      m_TileIndex: 94
      m_TileSpriteIndex: 94
      m_TileMatrixIndex: 0
      m_TileColorIndex: 0
      m_ObjectToInstantiate: {fileID: 0}
      m_TileFlags: 1
      m_ColliderType: 1
  - first: {x: -46, y: 34, z: 0}
    second:
      m_TileIndex: 95
      m_TileSpriteIndex: 95
      m_TileMatrixIndex: 0
      m_TileColorIndex: 0
      m_ObjectToInstantiate: {fileID: 0}
      m_TileFlags: 1
      m_ColliderType: 1
  - first: {x: -44, y: 34, z: 0}
    second:
      m_TileIndex: 96
      m_TileSpriteIndex: 96
      m_TileMatrixIndex: 0
      m_TileColorIndex: 0
      m_ObjectToInstantiate: {fileID: 0}
      m_TileFlags: 1
      m_ColliderType: 1
  - first: {x: -43, y: 34, z: 0}
    second:
      m_TileIndex: 97
      m_TileSpriteIndex: 97
      m_TileMatrixIndex: 0
      m_TileColorIndex: 0
      m_ObjectToInstantiate: {fileID: 0}
      m_TileFlags: 1
      m_ColliderType: 1
  - first: {x: -42, y: 34, z: 0}
    second:
      m_TileIndex: 98
      m_TileSpriteIndex: 98
      m_TileMatrixIndex: 0
      m_TileColorIndex: 0
      m_ObjectToInstantiate: {fileID: 0}
      m_TileFlags: 1
      m_ColliderType: 1
  - first: {x: -41, y: 34, z: 0}
    second:
      m_TileIndex: 99
      m_TileSpriteIndex: 99
      m_TileMatrixIndex: 0
      m_TileColorIndex: 0
      m_ObjectToInstantiate: {fileID: 0}
      m_TileFlags: 1
      m_ColliderType: 1
  - first: {x: -39, y: 34, z: 0}
    second:
      m_TileIndex: 100
      m_TileSpriteIndex: 100
      m_TileMatrixIndex: 0
      m_TileColorIndex: 0
      m_ObjectToInstantiate: {fileID: 0}
      m_TileFlags: 1
      m_ColliderType: 1
  - first: {x: -38, y: 34, z: 0}
    second:
      m_TileIndex: 101
      m_TileSpriteIndex: 101
      m_TileMatrixIndex: 0
      m_TileColorIndex: 0
      m_ObjectToInstantiate: {fileID: 0}
      m_TileFlags: 1
      m_ColliderType: 1
  - first: {x: -37, y: 34, z: 0}
    second:
      m_TileIndex: 102
      m_TileSpriteIndex: 102
      m_TileMatrixIndex: 0
      m_TileColorIndex: 0
      m_ObjectToInstantiate: {fileID: 0}
      m_TileFlags: 1
      m_ColliderType: 1
  - first: {x: -36, y: 34, z: 0}
    second:
      m_TileIndex: 103
      m_TileSpriteIndex: 103
      m_TileMatrixIndex: 0
      m_TileColorIndex: 0
      m_ObjectToInstantiate: {fileID: 0}
      m_TileFlags: 1
      m_ColliderType: 1
  - first: {x: -49, y: 35, z: 0}
    second:
      m_TileIndex: 77
      m_TileSpriteIndex: 77
      m_TileMatrixIndex: 0
      m_TileColorIndex: 0
      m_ObjectToInstantiate: {fileID: 0}
      m_TileFlags: 1
      m_ColliderType: 1
  - first: {x: -48, y: 35, z: 0}
    second:
      m_TileIndex: 78
      m_TileSpriteIndex: 78
      m_TileMatrixIndex: 0
      m_TileColorIndex: 0
      m_ObjectToInstantiate: {fileID: 0}
      m_TileFlags: 1
      m_ColliderType: 1
  - first: {x: -47, y: 35, z: 0}
    second:
      m_TileIndex: 79
      m_TileSpriteIndex: 79
      m_TileMatrixIndex: 0
      m_TileColorIndex: 0
      m_ObjectToInstantiate: {fileID: 0}
      m_TileFlags: 1
      m_ColliderType: 1
  - first: {x: -46, y: 35, z: 0}
    second:
      m_TileIndex: 80
      m_TileSpriteIndex: 80
      m_TileMatrixIndex: 0
      m_TileColorIndex: 0
      m_ObjectToInstantiate: {fileID: 0}
      m_TileFlags: 1
      m_ColliderType: 1
  - first: {x: -45, y: 35, z: 0}
    second:
      m_TileIndex: 81
      m_TileSpriteIndex: 81
      m_TileMatrixIndex: 0
      m_TileColorIndex: 0
      m_ObjectToInstantiate: {fileID: 0}
      m_TileFlags: 1
      m_ColliderType: 1
  - first: {x: -44, y: 35, z: 0}
    second:
      m_TileIndex: 82
      m_TileSpriteIndex: 82
      m_TileMatrixIndex: 0
      m_TileColorIndex: 0
      m_ObjectToInstantiate: {fileID: 0}
      m_TileFlags: 1
      m_ColliderType: 1
  - first: {x: -43, y: 35, z: 0}
    second:
      m_TileIndex: 83
      m_TileSpriteIndex: 83
      m_TileMatrixIndex: 0
      m_TileColorIndex: 0
      m_ObjectToInstantiate: {fileID: 0}
      m_TileFlags: 1
      m_ColliderType: 1
  - first: {x: -42, y: 35, z: 0}
    second:
      m_TileIndex: 84
      m_TileSpriteIndex: 84
      m_TileMatrixIndex: 0
      m_TileColorIndex: 0
      m_ObjectToInstantiate: {fileID: 0}
      m_TileFlags: 1
      m_ColliderType: 1
  - first: {x: -41, y: 35, z: 0}
    second:
      m_TileIndex: 85
      m_TileSpriteIndex: 85
      m_TileMatrixIndex: 0
      m_TileColorIndex: 0
      m_ObjectToInstantiate: {fileID: 0}
      m_TileFlags: 1
      m_ColliderType: 1
  - first: {x: -40, y: 35, z: 0}
    second:
      m_TileIndex: 86
      m_TileSpriteIndex: 86
      m_TileMatrixIndex: 0
      m_TileColorIndex: 0
      m_ObjectToInstantiate: {fileID: 0}
      m_TileFlags: 1
      m_ColliderType: 1
  - first: {x: -39, y: 35, z: 0}
    second:
      m_TileIndex: 87
      m_TileSpriteIndex: 87
      m_TileMatrixIndex: 0
      m_TileColorIndex: 0
      m_ObjectToInstantiate: {fileID: 0}
      m_TileFlags: 1
      m_ColliderType: 1
  - first: {x: -38, y: 35, z: 0}
    second:
      m_TileIndex: 88
      m_TileSpriteIndex: 88
      m_TileMatrixIndex: 0
      m_TileColorIndex: 0
      m_ObjectToInstantiate: {fileID: 0}
      m_TileFlags: 1
      m_ColliderType: 1
  - first: {x: -37, y: 35, z: 0}
    second:
      m_TileIndex: 89
      m_TileSpriteIndex: 89
      m_TileMatrixIndex: 0
      m_TileColorIndex: 0
      m_ObjectToInstantiate: {fileID: 0}
      m_TileFlags: 1
      m_ColliderType: 1
  - first: {x: -36, y: 35, z: 0}
    second:
      m_TileIndex: 90
      m_TileSpriteIndex: 90
      m_TileMatrixIndex: 0
      m_TileColorIndex: 0
      m_ObjectToInstantiate: {fileID: 0}
      m_TileFlags: 1
      m_ColliderType: 1
  - first: {x: -35, y: 35, z: 0}
    second:
      m_TileIndex: 91
      m_TileSpriteIndex: 91
      m_TileMatrixIndex: 0
      m_TileColorIndex: 0
      m_ObjectToInstantiate: {fileID: 0}
      m_TileFlags: 1
      m_ColliderType: 1
  - first: {x: -49, y: 36, z: 0}
    second:
      m_TileIndex: 66
      m_TileSpriteIndex: 66
      m_TileMatrixIndex: 0
      m_TileColorIndex: 0
      m_ObjectToInstantiate: {fileID: 0}
      m_TileFlags: 1
      m_ColliderType: 1
  - first: {x: -48, y: 36, z: 0}
    second:
      m_TileIndex: 67
      m_TileSpriteIndex: 67
      m_TileMatrixIndex: 0
      m_TileColorIndex: 0
      m_ObjectToInstantiate: {fileID: 0}
      m_TileFlags: 1
      m_ColliderType: 1
  - first: {x: -47, y: 36, z: 0}
    second:
      m_TileIndex: 68
      m_TileSpriteIndex: 68
      m_TileMatrixIndex: 0
      m_TileColorIndex: 0
      m_ObjectToInstantiate: {fileID: 0}
      m_TileFlags: 1
      m_ColliderType: 1
  - first: {x: -46, y: 36, z: 0}
    second:
      m_TileIndex: 69
      m_TileSpriteIndex: 69
      m_TileMatrixIndex: 0
      m_TileColorIndex: 0
      m_ObjectToInstantiate: {fileID: 0}
      m_TileFlags: 1
      m_ColliderType: 1
  - first: {x: -45, y: 36, z: 0}
    second:
      m_TileIndex: 70
      m_TileSpriteIndex: 70
      m_TileMatrixIndex: 0
      m_TileColorIndex: 0
      m_ObjectToInstantiate: {fileID: 0}
      m_TileFlags: 1
      m_ColliderType: 1
  - first: {x: -44, y: 36, z: 0}
    second:
      m_TileIndex: 71
      m_TileSpriteIndex: 71
      m_TileMatrixIndex: 0
      m_TileColorIndex: 0
      m_ObjectToInstantiate: {fileID: 0}
      m_TileFlags: 1
      m_ColliderType: 1
  - first: {x: -43, y: 36, z: 0}
    second:
      m_TileIndex: 72
      m_TileSpriteIndex: 72
      m_TileMatrixIndex: 0
      m_TileColorIndex: 0
      m_ObjectToInstantiate: {fileID: 0}
      m_TileFlags: 1
      m_ColliderType: 1
  - first: {x: -42, y: 36, z: 0}
    second:
      m_TileIndex: 73
      m_TileSpriteIndex: 73
      m_TileMatrixIndex: 0
      m_TileColorIndex: 0
      m_ObjectToInstantiate: {fileID: 0}
      m_TileFlags: 1
      m_ColliderType: 1
  - first: {x: -41, y: 36, z: 0}
    second:
      m_TileIndex: 74
      m_TileSpriteIndex: 74
      m_TileMatrixIndex: 0
      m_TileColorIndex: 0
      m_ObjectToInstantiate: {fileID: 0}
      m_TileFlags: 1
      m_ColliderType: 1
  - first: {x: -37, y: 36, z: 0}
    second:
      m_TileIndex: 75
      m_TileSpriteIndex: 75
      m_TileMatrixIndex: 0
      m_TileColorIndex: 0
      m_ObjectToInstantiate: {fileID: 0}
      m_TileFlags: 1
      m_ColliderType: 1
  - first: {x: -36, y: 36, z: 0}
    second:
      m_TileIndex: 76
      m_TileSpriteIndex: 76
      m_TileMatrixIndex: 0
      m_TileColorIndex: 0
      m_ObjectToInstantiate: {fileID: 0}
      m_TileFlags: 1
      m_ColliderType: 1
  - first: {x: -49, y: 37, z: 0}
    second:
      m_TileIndex: 55
      m_TileSpriteIndex: 55
      m_TileMatrixIndex: 0
      m_TileColorIndex: 0
      m_ObjectToInstantiate: {fileID: 0}
      m_TileFlags: 1
      m_ColliderType: 1
  - first: {x: -48, y: 37, z: 0}
    second:
      m_TileIndex: 56
      m_TileSpriteIndex: 56
      m_TileMatrixIndex: 0
      m_TileColorIndex: 0
      m_ObjectToInstantiate: {fileID: 0}
      m_TileFlags: 1
      m_ColliderType: 1
  - first: {x: -47, y: 37, z: 0}
    second:
      m_TileIndex: 57
      m_TileSpriteIndex: 57
      m_TileMatrixIndex: 0
      m_TileColorIndex: 0
      m_ObjectToInstantiate: {fileID: 0}
      m_TileFlags: 1
      m_ColliderType: 1
  - first: {x: -46, y: 37, z: 0}
    second:
      m_TileIndex: 58
      m_TileSpriteIndex: 58
      m_TileMatrixIndex: 0
      m_TileColorIndex: 0
      m_ObjectToInstantiate: {fileID: 0}
      m_TileFlags: 1
      m_ColliderType: 1
  - first: {x: -45, y: 37, z: 0}
    second:
      m_TileIndex: 59
      m_TileSpriteIndex: 59
      m_TileMatrixIndex: 0
      m_TileColorIndex: 0
      m_ObjectToInstantiate: {fileID: 0}
      m_TileFlags: 1
      m_ColliderType: 1
  - first: {x: -44, y: 37, z: 0}
    second:
      m_TileIndex: 60
      m_TileSpriteIndex: 60
      m_TileMatrixIndex: 0
      m_TileColorIndex: 0
      m_ObjectToInstantiate: {fileID: 0}
      m_TileFlags: 1
      m_ColliderType: 1
  - first: {x: -43, y: 37, z: 0}
    second:
      m_TileIndex: 61
      m_TileSpriteIndex: 61
      m_TileMatrixIndex: 0
      m_TileColorIndex: 0
      m_ObjectToInstantiate: {fileID: 0}
      m_TileFlags: 1
      m_ColliderType: 1
  - first: {x: -42, y: 37, z: 0}
    second:
      m_TileIndex: 62
      m_TileSpriteIndex: 62
      m_TileMatrixIndex: 0
      m_TileColorIndex: 0
      m_ObjectToInstantiate: {fileID: 0}
      m_TileFlags: 1
      m_ColliderType: 1
  - first: {x: -41, y: 37, z: 0}
    second:
      m_TileIndex: 63
      m_TileSpriteIndex: 63
      m_TileMatrixIndex: 0
      m_TileColorIndex: 0
      m_ObjectToInstantiate: {fileID: 0}
      m_TileFlags: 1
      m_ColliderType: 1
  - first: {x: -37, y: 37, z: 0}
    second:
      m_TileIndex: 64
      m_TileSpriteIndex: 64
      m_TileMatrixIndex: 0
      m_TileColorIndex: 0
      m_ObjectToInstantiate: {fileID: 0}
      m_TileFlags: 1
      m_ColliderType: 1
  - first: {x: -36, y: 37, z: 0}
    second:
      m_TileIndex: 65
      m_TileSpriteIndex: 65
      m_TileMatrixIndex: 0
      m_TileColorIndex: 0
      m_ObjectToInstantiate: {fileID: 0}
      m_TileFlags: 1
      m_ColliderType: 1
  - first: {x: -49, y: 38, z: 0}
    second:
      m_TileIndex: 42
      m_TileSpriteIndex: 42
      m_TileMatrixIndex: 0
      m_TileColorIndex: 0
      m_ObjectToInstantiate: {fileID: 0}
      m_TileFlags: 1
      m_ColliderType: 1
  - first: {x: -48, y: 38, z: 0}
    second:
      m_TileIndex: 43
      m_TileSpriteIndex: 43
      m_TileMatrixIndex: 0
      m_TileColorIndex: 0
      m_ObjectToInstantiate: {fileID: 0}
      m_TileFlags: 1
      m_ColliderType: 1
  - first: {x: -47, y: 38, z: 0}
    second:
      m_TileIndex: 44
      m_TileSpriteIndex: 44
      m_TileMatrixIndex: 0
      m_TileColorIndex: 0
      m_ObjectToInstantiate: {fileID: 0}
      m_TileFlags: 1
      m_ColliderType: 1
  - first: {x: -46, y: 38, z: 0}
    second:
      m_TileIndex: 45
      m_TileSpriteIndex: 45
      m_TileMatrixIndex: 0
      m_TileColorIndex: 0
      m_ObjectToInstantiate: {fileID: 0}
      m_TileFlags: 1
      m_ColliderType: 1
  - first: {x: -44, y: 38, z: 0}
    second:
      m_TileIndex: 46
      m_TileSpriteIndex: 46
      m_TileMatrixIndex: 0
      m_TileColorIndex: 0
      m_ObjectToInstantiate: {fileID: 0}
      m_TileFlags: 1
      m_ColliderType: 1
  - first: {x: -43, y: 38, z: 0}
    second:
      m_TileIndex: 47
      m_TileSpriteIndex: 47
      m_TileMatrixIndex: 0
      m_TileColorIndex: 0
      m_ObjectToInstantiate: {fileID: 0}
      m_TileFlags: 1
      m_ColliderType: 1
  - first: {x: -42, y: 38, z: 0}
    second:
      m_TileIndex: 48
      m_TileSpriteIndex: 48
      m_TileMatrixIndex: 0
      m_TileColorIndex: 0
      m_ObjectToInstantiate: {fileID: 0}
      m_TileFlags: 1
      m_ColliderType: 1
  - first: {x: -41, y: 38, z: 0}
    second:
      m_TileIndex: 49
      m_TileSpriteIndex: 49
      m_TileMatrixIndex: 0
      m_TileColorIndex: 0
      m_ObjectToInstantiate: {fileID: 0}
      m_TileFlags: 1
      m_ColliderType: 1
  - first: {x: -40, y: 38, z: 0}
    second:
      m_TileIndex: 50
      m_TileSpriteIndex: 50
      m_TileMatrixIndex: 0
      m_TileColorIndex: 0
      m_ObjectToInstantiate: {fileID: 0}
      m_TileFlags: 1
      m_ColliderType: 1
  - first: {x: -39, y: 38, z: 0}
    second:
      m_TileIndex: 51
      m_TileSpriteIndex: 51
      m_TileMatrixIndex: 0
      m_TileColorIndex: 0
      m_ObjectToInstantiate: {fileID: 0}
      m_TileFlags: 1
      m_ColliderType: 1
  - first: {x: -38, y: 38, z: 0}
    second:
      m_TileIndex: 52
      m_TileSpriteIndex: 52
      m_TileMatrixIndex: 0
      m_TileColorIndex: 0
      m_ObjectToInstantiate: {fileID: 0}
      m_TileFlags: 1
      m_ColliderType: 1
  - first: {x: -37, y: 38, z: 0}
    second:
      m_TileIndex: 53
      m_TileSpriteIndex: 53
      m_TileMatrixIndex: 0
      m_TileColorIndex: 0
      m_ObjectToInstantiate: {fileID: 0}
      m_TileFlags: 1
      m_ColliderType: 1
  - first: {x: -36, y: 38, z: 0}
    second:
      m_TileIndex: 54
      m_TileSpriteIndex: 54
      m_TileMatrixIndex: 0
      m_TileColorIndex: 0
      m_ObjectToInstantiate: {fileID: 0}
      m_TileFlags: 1
      m_ColliderType: 1
  - first: {x: -49, y: 39, z: 0}
    second:
      m_TileIndex: 28
      m_TileSpriteIndex: 28
      m_TileMatrixIndex: 0
      m_TileColorIndex: 0
      m_ObjectToInstantiate: {fileID: 0}
      m_TileFlags: 1
      m_ColliderType: 1
  - first: {x: -48, y: 39, z: 0}
    second:
      m_TileIndex: 29
      m_TileSpriteIndex: 29
      m_TileMatrixIndex: 0
      m_TileColorIndex: 0
      m_ObjectToInstantiate: {fileID: 0}
      m_TileFlags: 1
      m_ColliderType: 1
  - first: {x: -47, y: 39, z: 0}
    second:
      m_TileIndex: 30
      m_TileSpriteIndex: 30
      m_TileMatrixIndex: 0
      m_TileColorIndex: 0
      m_ObjectToInstantiate: {fileID: 0}
      m_TileFlags: 1
      m_ColliderType: 1
  - first: {x: -46, y: 39, z: 0}
    second:
      m_TileIndex: 31
      m_TileSpriteIndex: 31
      m_TileMatrixIndex: 0
      m_TileColorIndex: 0
      m_ObjectToInstantiate: {fileID: 0}
      m_TileFlags: 1
      m_ColliderType: 1
  - first: {x: -45, y: 39, z: 0}
    second:
      m_TileIndex: 32
      m_TileSpriteIndex: 32
      m_TileMatrixIndex: 0
      m_TileColorIndex: 0
      m_ObjectToInstantiate: {fileID: 0}
      m_TileFlags: 1
      m_ColliderType: 1
  - first: {x: -44, y: 39, z: 0}
    second:
      m_TileIndex: 33
      m_TileSpriteIndex: 33
      m_TileMatrixIndex: 0
      m_TileColorIndex: 0
      m_ObjectToInstantiate: {fileID: 0}
      m_TileFlags: 1
      m_ColliderType: 1
  - first: {x: -43, y: 39, z: 0}
    second:
      m_TileIndex: 34
      m_TileSpriteIndex: 34
      m_TileMatrixIndex: 0
      m_TileColorIndex: 0
      m_ObjectToInstantiate: {fileID: 0}
      m_TileFlags: 1
      m_ColliderType: 1
  - first: {x: -42, y: 39, z: 0}
    second:
      m_TileIndex: 35
      m_TileSpriteIndex: 35
      m_TileMatrixIndex: 0
      m_TileColorIndex: 0
      m_ObjectToInstantiate: {fileID: 0}
      m_TileFlags: 1
      m_ColliderType: 1
  - first: {x: -41, y: 39, z: 0}
    second:
      m_TileIndex: 36
      m_TileSpriteIndex: 36
      m_TileMatrixIndex: 0
      m_TileColorIndex: 0
      m_ObjectToInstantiate: {fileID: 0}
      m_TileFlags: 1
      m_ColliderType: 1
  - first: {x: -40, y: 39, z: 0}
    second:
      m_TileIndex: 37
      m_TileSpriteIndex: 37
      m_TileMatrixIndex: 0
      m_TileColorIndex: 0
      m_ObjectToInstantiate: {fileID: 0}
      m_TileFlags: 1
      m_ColliderType: 1
  - first: {x: -39, y: 39, z: 0}
    second:
      m_TileIndex: 38
      m_TileSpriteIndex: 38
      m_TileMatrixIndex: 0
      m_TileColorIndex: 0
      m_ObjectToInstantiate: {fileID: 0}
      m_TileFlags: 1
      m_ColliderType: 1
  - first: {x: -38, y: 39, z: 0}
    second:
      m_TileIndex: 39
      m_TileSpriteIndex: 39
      m_TileMatrixIndex: 0
      m_TileColorIndex: 0
      m_ObjectToInstantiate: {fileID: 0}
      m_TileFlags: 1
      m_ColliderType: 1
  - first: {x: -37, y: 39, z: 0}
    second:
      m_TileIndex: 40
      m_TileSpriteIndex: 40
      m_TileMatrixIndex: 0
      m_TileColorIndex: 0
      m_ObjectToInstantiate: {fileID: 0}
      m_TileFlags: 1
      m_ColliderType: 1
  - first: {x: -36, y: 39, z: 0}
    second:
      m_TileIndex: 41
      m_TileSpriteIndex: 41
      m_TileMatrixIndex: 0
      m_TileColorIndex: 0
      m_ObjectToInstantiate: {fileID: 0}
      m_TileFlags: 1
      m_ColliderType: 1
  - first: {x: -49, y: 40, z: 0}
    second:
      m_TileIndex: 14
      m_TileSpriteIndex: 14
      m_TileMatrixIndex: 0
      m_TileColorIndex: 0
      m_ObjectToInstantiate: {fileID: 0}
      m_TileFlags: 1
      m_ColliderType: 1
  - first: {x: -48, y: 40, z: 0}
    second:
      m_TileIndex: 15
      m_TileSpriteIndex: 15
      m_TileMatrixIndex: 0
      m_TileColorIndex: 0
      m_ObjectToInstantiate: {fileID: 0}
      m_TileFlags: 1
      m_ColliderType: 1
  - first: {x: -47, y: 40, z: 0}
    second:
      m_TileIndex: 16
      m_TileSpriteIndex: 16
      m_TileMatrixIndex: 0
      m_TileColorIndex: 0
      m_ObjectToInstantiate: {fileID: 0}
      m_TileFlags: 1
      m_ColliderType: 1
  - first: {x: -46, y: 40, z: 0}
    second:
      m_TileIndex: 17
      m_TileSpriteIndex: 17
      m_TileMatrixIndex: 0
      m_TileColorIndex: 0
      m_ObjectToInstantiate: {fileID: 0}
      m_TileFlags: 1
      m_ColliderType: 1
  - first: {x: -45, y: 40, z: 0}
    second:
      m_TileIndex: 18
      m_TileSpriteIndex: 18
      m_TileMatrixIndex: 0
      m_TileColorIndex: 0
      m_ObjectToInstantiate: {fileID: 0}
      m_TileFlags: 1
      m_ColliderType: 1
  - first: {x: -44, y: 40, z: 0}
    second:
      m_TileIndex: 19
      m_TileSpriteIndex: 19
      m_TileMatrixIndex: 0
      m_TileColorIndex: 0
      m_ObjectToInstantiate: {fileID: 0}
      m_TileFlags: 1
      m_ColliderType: 1
  - first: {x: -43, y: 40, z: 0}
    second:
      m_TileIndex: 20
      m_TileSpriteIndex: 20
      m_TileMatrixIndex: 0
      m_TileColorIndex: 0
      m_ObjectToInstantiate: {fileID: 0}
      m_TileFlags: 1
      m_ColliderType: 1
  - first: {x: -42, y: 40, z: 0}
    second:
      m_TileIndex: 21
      m_TileSpriteIndex: 21
      m_TileMatrixIndex: 0
      m_TileColorIndex: 0
      m_ObjectToInstantiate: {fileID: 0}
      m_TileFlags: 1
      m_ColliderType: 1
  - first: {x: -41, y: 40, z: 0}
    second:
      m_TileIndex: 22
      m_TileSpriteIndex: 22
      m_TileMatrixIndex: 0
      m_TileColorIndex: 0
      m_ObjectToInstantiate: {fileID: 0}
      m_TileFlags: 1
      m_ColliderType: 1
  - first: {x: -40, y: 40, z: 0}
    second:
      m_TileIndex: 23
      m_TileSpriteIndex: 23
      m_TileMatrixIndex: 0
      m_TileColorIndex: 0
      m_ObjectToInstantiate: {fileID: 0}
      m_TileFlags: 1
      m_ColliderType: 1
  - first: {x: -39, y: 40, z: 0}
    second:
      m_TileIndex: 24
      m_TileSpriteIndex: 24
      m_TileMatrixIndex: 0
      m_TileColorIndex: 0
      m_ObjectToInstantiate: {fileID: 0}
      m_TileFlags: 1
      m_ColliderType: 1
  - first: {x: -38, y: 40, z: 0}
    second:
      m_TileIndex: 25
      m_TileSpriteIndex: 25
      m_TileMatrixIndex: 0
      m_TileColorIndex: 0
      m_ObjectToInstantiate: {fileID: 0}
      m_TileFlags: 1
      m_ColliderType: 1
  - first: {x: -37, y: 40, z: 0}
    second:
      m_TileIndex: 26
      m_TileSpriteIndex: 26
      m_TileMatrixIndex: 0
      m_TileColorIndex: 0
      m_ObjectToInstantiate: {fileID: 0}
      m_TileFlags: 1
      m_ColliderType: 1
  - first: {x: -36, y: 40, z: 0}
    second:
      m_TileIndex: 27
      m_TileSpriteIndex: 27
      m_TileMatrixIndex: 0
      m_TileColorIndex: 0
      m_ObjectToInstantiate: {fileID: 0}
      m_TileFlags: 1
      m_ColliderType: 1
  - first: {x: -49, y: 41, z: 0}
    second:
      m_TileIndex: 1
      m_TileSpriteIndex: 1
      m_TileMatrixIndex: 0
      m_TileColorIndex: 0
      m_ObjectToInstantiate: {fileID: 0}
      m_TileFlags: 1
      m_ColliderType: 1
  - first: {x: -48, y: 41, z: 0}
    second:
      m_TileIndex: 2
      m_TileSpriteIndex: 2
      m_TileMatrixIndex: 0
      m_TileColorIndex: 0
      m_ObjectToInstantiate: {fileID: 0}
      m_TileFlags: 1
      m_ColliderType: 1
  - first: {x: -47, y: 41, z: 0}
    second:
      m_TileIndex: 3
      m_TileSpriteIndex: 3
      m_TileMatrixIndex: 0
      m_TileColorIndex: 0
      m_ObjectToInstantiate: {fileID: 0}
      m_TileFlags: 1
      m_ColliderType: 1
  - first: {x: -46, y: 41, z: 0}
    second:
      m_TileIndex: 4
      m_TileSpriteIndex: 4
      m_TileMatrixIndex: 0
      m_TileColorIndex: 0
      m_ObjectToInstantiate: {fileID: 0}
      m_TileFlags: 1
      m_ColliderType: 1
  - first: {x: -45, y: 41, z: 0}
    second:
      m_TileIndex: 5
      m_TileSpriteIndex: 5
      m_TileMatrixIndex: 0
      m_TileColorIndex: 0
      m_ObjectToInstantiate: {fileID: 0}
      m_TileFlags: 1
      m_ColliderType: 1
  - first: {x: -44, y: 41, z: 0}
    second:
      m_TileIndex: 6
      m_TileSpriteIndex: 6
      m_TileMatrixIndex: 0
      m_TileColorIndex: 0
      m_ObjectToInstantiate: {fileID: 0}
      m_TileFlags: 1
      m_ColliderType: 1
  - first: {x: -43, y: 41, z: 0}
    second:
      m_TileIndex: 7
      m_TileSpriteIndex: 7
      m_TileMatrixIndex: 0
      m_TileColorIndex: 0
      m_ObjectToInstantiate: {fileID: 0}
      m_TileFlags: 1
      m_ColliderType: 1
  - first: {x: -41, y: 41, z: 0}
    second:
      m_TileIndex: 8
      m_TileSpriteIndex: 8
      m_TileMatrixIndex: 0
      m_TileColorIndex: 0
      m_ObjectToInstantiate: {fileID: 0}
      m_TileFlags: 1
      m_ColliderType: 1
  - first: {x: -40, y: 41, z: 0}
    second:
      m_TileIndex: 9
      m_TileSpriteIndex: 9
      m_TileMatrixIndex: 0
      m_TileColorIndex: 0
      m_ObjectToInstantiate: {fileID: 0}
      m_TileFlags: 1
      m_ColliderType: 1
  - first: {x: -39, y: 41, z: 0}
    second:
      m_TileIndex: 10
      m_TileSpriteIndex: 10
      m_TileMatrixIndex: 0
      m_TileColorIndex: 0
      m_ObjectToInstantiate: {fileID: 0}
      m_TileFlags: 1
      m_ColliderType: 1
  - first: {x: -38, y: 41, z: 0}
    second:
      m_TileIndex: 11
      m_TileSpriteIndex: 11
      m_TileMatrixIndex: 0
      m_TileColorIndex: 0
      m_ObjectToInstantiate: {fileID: 0}
      m_TileFlags: 1
      m_ColliderType: 1
  - first: {x: -37, y: 41, z: 0}
    second:
      m_TileIndex: 12
      m_TileSpriteIndex: 12
      m_TileMatrixIndex: 0
      m_TileColorIndex: 0
      m_ObjectToInstantiate: {fileID: 0}
      m_TileFlags: 1
      m_ColliderType: 1
  - first: {x: -36, y: 41, z: 0}
    second:
      m_TileIndex: 13
      m_TileSpriteIndex: 13
      m_TileMatrixIndex: 0
      m_TileColorIndex: 0
      m_ObjectToInstantiate: {fileID: 0}
      m_TileFlags: 1
      m_ColliderType: 1
  m_AnimatedTiles: {}
  m_TileAssetArray:
  - m_RefCount: 1
    m_Data: {fileID: 11400000, guid: 617a8a4d8f406864e8df7a2ae48a5833, type: 2}
  - m_RefCount: 1
    m_Data: {fileID: 11400000, guid: 5b33bf32e61d7e349a3738efecff162c, type: 2}
  - m_RefCount: 1
    m_Data: {fileID: 11400000, guid: 8da4470cf4bd28b4d9087133e07edc5d, type: 2}
  - m_RefCount: 1
    m_Data: {fileID: 11400000, guid: e90330768d887a247a60794724c915b9, type: 2}
  - m_RefCount: 1
    m_Data: {fileID: 11400000, guid: 554cd7ad354f746489ef0a9700e897ea, type: 2}
  - m_RefCount: 1
    m_Data: {fileID: 11400000, guid: f23fcf27aa717cf4691118e28f5ecbbd, type: 2}
  - m_RefCount: 1
    m_Data: {fileID: 11400000, guid: 4938cdd724d6c3649993eb850a99cdc7, type: 2}
  - m_RefCount: 1
    m_Data: {fileID: 11400000, guid: 913a136367f50174cbb65e9ae23947be, type: 2}
  - m_RefCount: 1
    m_Data: {fileID: 11400000, guid: 0308e1d89c235c448906d51b59495f3d, type: 2}
  - m_RefCount: 1
    m_Data: {fileID: 11400000, guid: efc4299f065c66a418a6975323d92b30, type: 2}
  - m_RefCount: 1
    m_Data: {fileID: 11400000, guid: 1faa3ac4658c734439e31d80a99fdff7, type: 2}
  - m_RefCount: 1
    m_Data: {fileID: 11400000, guid: ab1c7e4faea2ed14e8296bc2bc012cad, type: 2}
  - m_RefCount: 1
    m_Data: {fileID: 11400000, guid: 95802b5d9bd824e409d10c59d7e88738, type: 2}
  - m_RefCount: 1
    m_Data: {fileID: 11400000, guid: 1184ee6a5185e804fa7f15bbd041a14a, type: 2}
  - m_RefCount: 1
    m_Data: {fileID: 11400000, guid: c56c62c71c3bdfd45a828ead6bbb40cd, type: 2}
  - m_RefCount: 1
    m_Data: {fileID: 11400000, guid: 7ff31b5217a788f4abf3973fb0ea4a40, type: 2}
  - m_RefCount: 1
    m_Data: {fileID: 11400000, guid: f83e14398b2bec24fa9313be8261f731, type: 2}
  - m_RefCount: 1
    m_Data: {fileID: 11400000, guid: a66ef8f9af9d2024494a630b1c43c1dc, type: 2}
  - m_RefCount: 1
    m_Data: {fileID: 11400000, guid: d8b38970129fbc14ca9982a794872fd7, type: 2}
  - m_RefCount: 1
    m_Data: {fileID: 11400000, guid: 486e6218f22eed34a85061aa66f929e5, type: 2}
  - m_RefCount: 1
    m_Data: {fileID: 11400000, guid: 647ba78fa8946f049af91041e531b01d, type: 2}
  - m_RefCount: 1
    m_Data: {fileID: 11400000, guid: 18c3cafc099c0f345a84c684da77625f, type: 2}
  - m_RefCount: 1
    m_Data: {fileID: 11400000, guid: 5dac75bc978c8544482d5367e5a25300, type: 2}
  - m_RefCount: 1
    m_Data: {fileID: 11400000, guid: 291e8a70210b8184f973692f0b9640ba, type: 2}
  - m_RefCount: 1
    m_Data: {fileID: 11400000, guid: ac62f7d359513dd4ea9ec02beb723080, type: 2}
  - m_RefCount: 1
    m_Data: {fileID: 11400000, guid: bf8c43a0de934bc4c88ffa5f498863ef, type: 2}
  - m_RefCount: 1
    m_Data: {fileID: 11400000, guid: 693ea5835fb90a54698830aec0628d53, type: 2}
  - m_RefCount: 1
    m_Data: {fileID: 11400000, guid: 4cf14b1ebb3e1944fada294e984309cb, type: 2}
  - m_RefCount: 1
    m_Data: {fileID: 11400000, guid: bb19930d4033ccf4eb914ba3acaa241d, type: 2}
  - m_RefCount: 1
    m_Data: {fileID: 11400000, guid: 925158db5fe303c4199156277e8902b0, type: 2}
  - m_RefCount: 1
    m_Data: {fileID: 11400000, guid: 768861528aa14c447adf4e163ced960d, type: 2}
  - m_RefCount: 1
    m_Data: {fileID: 11400000, guid: 9461bce856bd18b48b175963491530d1, type: 2}
  - m_RefCount: 1
    m_Data: {fileID: 11400000, guid: 497d90abbc3f43e49882e69ab46e8f55, type: 2}
  - m_RefCount: 1
    m_Data: {fileID: 11400000, guid: a828adb4f2cb9e04398734ed388c2a82, type: 2}
  - m_RefCount: 1
    m_Data: {fileID: 11400000, guid: c4a08173c51989243841f0ee8468ddd6, type: 2}
  - m_RefCount: 1
    m_Data: {fileID: 11400000, guid: 81a3ae1747de54e47a5887291d1567e8, type: 2}
  - m_RefCount: 1
    m_Data: {fileID: 11400000, guid: 45fa4fdcefc0d1f4ba6e4ff149b26161, type: 2}
  - m_RefCount: 1
    m_Data: {fileID: 11400000, guid: 61dad602b64bace4b8fd483f0c3a71fb, type: 2}
  - m_RefCount: 1
    m_Data: {fileID: 11400000, guid: 54a6ecb3a76097a4dba6606204192d27, type: 2}
  - m_RefCount: 1
    m_Data: {fileID: 11400000, guid: 63bbeeaf61c9dcc418d25c1a44591bcc, type: 2}
  - m_RefCount: 1
    m_Data: {fileID: 11400000, guid: d1de7700ca61f2149b6b1c994a344515, type: 2}
  - m_RefCount: 1
    m_Data: {fileID: 11400000, guid: 94a04e90a7d10984d99b4d211dd51c6e, type: 2}
  - m_RefCount: 1
    m_Data: {fileID: 11400000, guid: 1153278b1eb300644ad1b8380382d6f1, type: 2}
  - m_RefCount: 1
    m_Data: {fileID: 11400000, guid: c2aa84cd72aef0b47ba5ccce88e4014e, type: 2}
  - m_RefCount: 1
    m_Data: {fileID: 11400000, guid: 31816be2ed5f8934bb820204612196c5, type: 2}
  - m_RefCount: 1
    m_Data: {fileID: 11400000, guid: d84e8aaa6fb0a6d45b4d7b8c7f301e6d, type: 2}
  - m_RefCount: 1
    m_Data: {fileID: 11400000, guid: f50d75847d5282b47a50170dc0417f2f, type: 2}
  - m_RefCount: 1
    m_Data: {fileID: 11400000, guid: c8d0ef2fafb017a4a940dd188ff77e41, type: 2}
  - m_RefCount: 1
    m_Data: {fileID: 11400000, guid: 28da1e4596cbd684f8a1fac9977d1801, type: 2}
  - m_RefCount: 1
    m_Data: {fileID: 11400000, guid: 9610748e9bab50b44b464ba54bf6b750, type: 2}
  - m_RefCount: 1
    m_Data: {fileID: 11400000, guid: b4a0e3985d8cda247ac1b5c1249ad534, type: 2}
  - m_RefCount: 1
    m_Data: {fileID: 11400000, guid: 3112eaad06656134e97926d0780a3190, type: 2}
  - m_RefCount: 1
    m_Data: {fileID: 11400000, guid: ff910125270661e4790be3128f06a621, type: 2}
  - m_RefCount: 1
    m_Data: {fileID: 11400000, guid: 4471bb5b876d8d3468f9c32782ce19cd, type: 2}
  - m_RefCount: 1
    m_Data: {fileID: 11400000, guid: 3453d6b68e4935d479ec65a36505c8ec, type: 2}
  - m_RefCount: 1
    m_Data: {fileID: 11400000, guid: 86a08c4d3297c6c419953b8cfe2f6d64, type: 2}
  - m_RefCount: 1
    m_Data: {fileID: 11400000, guid: 8c39f49e91ed6a34b8c005d5bb2ec4aa, type: 2}
  - m_RefCount: 1
    m_Data: {fileID: 11400000, guid: 8da3b1ee36eb96e41ba0122c66ccff35, type: 2}
  - m_RefCount: 1
    m_Data: {fileID: 11400000, guid: 6e3d920a40af3a749a419e40c46a538f, type: 2}
  - m_RefCount: 1
    m_Data: {fileID: 11400000, guid: 39a82d1f0f803d94ab6c16a49ab0d1c3, type: 2}
  - m_RefCount: 1
    m_Data: {fileID: 11400000, guid: 10a3ea15828f4e140a6dc33375fa7acb, type: 2}
  - m_RefCount: 1
    m_Data: {fileID: 11400000, guid: 3ab0ef5e457c2b8418af4ab247f93c38, type: 2}
  - m_RefCount: 1
    m_Data: {fileID: 11400000, guid: ac07c18f62bf7f542ab711c73d510358, type: 2}
  - m_RefCount: 1
    m_Data: {fileID: 11400000, guid: bff5fe70fed207441a478b2c6182317f, type: 2}
  - m_RefCount: 1
    m_Data: {fileID: 11400000, guid: 5c2bdb3fab9aca246b907577315d5033, type: 2}
  - m_RefCount: 1
    m_Data: {fileID: 11400000, guid: 7453a4ad9e099cc4baaf0c274f77f5bd, type: 2}
  - m_RefCount: 1
    m_Data: {fileID: 11400000, guid: ca29db73e00046e4db237fe92628c1ac, type: 2}
  - m_RefCount: 1
    m_Data: {fileID: 11400000, guid: 857d6d2796b0862458c779b1bd24ff86, type: 2}
  - m_RefCount: 1
    m_Data: {fileID: 11400000, guid: 142ef34304f4657438b5e12bc5645dd3, type: 2}
  - m_RefCount: 1
    m_Data: {fileID: 11400000, guid: 13524d5a88ae37e4892968dc679c7374, type: 2}
  - m_RefCount: 1
    m_Data: {fileID: 11400000, guid: f6f87af05d14688498ec1472a4d82ef9, type: 2}
  - m_RefCount: 1
    m_Data: {fileID: 11400000, guid: 7a05c23f15b5b924d88c7e3e3a2c15d7, type: 2}
  - m_RefCount: 1
    m_Data: {fileID: 11400000, guid: 3cc5f4986d660ad4da45193af7f5a445, type: 2}
  - m_RefCount: 1
    m_Data: {fileID: 11400000, guid: 1a7676db565c2534f952d8a75eba50d5, type: 2}
  - m_RefCount: 1
    m_Data: {fileID: 11400000, guid: 75b7fdf33131c124e937cc9ffb60da44, type: 2}
  - m_RefCount: 1
    m_Data: {fileID: 11400000, guid: 11c33ebeb349eec4b9e5ccf931dcceca, type: 2}
  - m_RefCount: 1
    m_Data: {fileID: 11400000, guid: 6b14d9812bf9ee941ad5aede935b8d19, type: 2}
  - m_RefCount: 1
    m_Data: {fileID: 11400000, guid: 50b76cb3f26847a40a2b0225f1eb1bd5, type: 2}
  - m_RefCount: 1
    m_Data: {fileID: 11400000, guid: a0c5eb310e24ec2419ec1aa8a45e104d, type: 2}
  - m_RefCount: 1
    m_Data: {fileID: 11400000, guid: ce980640aafb09b409febfeb079e3180, type: 2}
  - m_RefCount: 1
    m_Data: {fileID: 11400000, guid: 9523315a6cc0e4e4390be6b023f34861, type: 2}
  - m_RefCount: 1
    m_Data: {fileID: 11400000, guid: b96bbff2a391bcc4ea93707635ab9473, type: 2}
  - m_RefCount: 1
    m_Data: {fileID: 11400000, guid: cb044a0abb79d15489078c0b8c3576f9, type: 2}
  - m_RefCount: 1
    m_Data: {fileID: 11400000, guid: 78c62ad94de482d469347ee3767d980a, type: 2}
  - m_RefCount: 1
    m_Data: {fileID: 11400000, guid: ac9c1ca2434a48540b09283b512120c6, type: 2}
  - m_RefCount: 1
    m_Data: {fileID: 11400000, guid: 2057cd5b942b5964087196feca6cf851, type: 2}
  - m_RefCount: 1
    m_Data: {fileID: 11400000, guid: 507fa8cf7e8540b4ea444d460a8edb08, type: 2}
  - m_RefCount: 1
    m_Data: {fileID: 11400000, guid: a6d8dca04c24ea5498de7708774aeb5d, type: 2}
  - m_RefCount: 1
    m_Data: {fileID: 11400000, guid: 434a2878e1411c7489c92cf859244f12, type: 2}
  - m_RefCount: 1
    m_Data: {fileID: 11400000, guid: eb599e40f4960ff43bfe835ab13638f0, type: 2}
  - m_RefCount: 1
    m_Data: {fileID: 11400000, guid: cefe1d3d66b83234cb25bc92305602e6, type: 2}
  - m_RefCount: 1
    m_Data: {fileID: 11400000, guid: 6b6d8716a9e9e07409a2b38eb3acc89f, type: 2}
  - m_RefCount: 1
    m_Data: {fileID: 11400000, guid: f059d0bb52a03d341b56b26e3cfe56b5, type: 2}
  - m_RefCount: 1
    m_Data: {fileID: 11400000, guid: 3843f6b07c6e80b4696fee46abe0fdbc, type: 2}
  - m_RefCount: 1
    m_Data: {fileID: 11400000, guid: 9e9715c1b0b83534591b87af17c431df, type: 2}
  - m_RefCount: 1
    m_Data: {fileID: 11400000, guid: 00e91c6b882ffdf4da8f1a6b1ea69691, type: 2}
  - m_RefCount: 1
    m_Data: {fileID: 11400000, guid: c3963a6692b0b234da0a6e6144832150, type: 2}
  - m_RefCount: 1
    m_Data: {fileID: 11400000, guid: a77b8659654030e49887280ee04cfaff, type: 2}
  - m_RefCount: 1
    m_Data: {fileID: 11400000, guid: 9a01659c1530c624eb55a36690f5bc8d, type: 2}
  - m_RefCount: 1
    m_Data: {fileID: 11400000, guid: debda694f6c42e44fad5a12e4323abf4, type: 2}
  - m_RefCount: 1
    m_Data: {fileID: 11400000, guid: 0d354a4b70fafe64f9f0c6761195d805, type: 2}
  - m_RefCount: 1
    m_Data: {fileID: 11400000, guid: 7895be5e82e16be439f10d69baeca69b, type: 2}
  - m_RefCount: 1
    m_Data: {fileID: 11400000, guid: 8cdc5f7085f58e1419c4bb55f5402f18, type: 2}
  - m_RefCount: 1
    m_Data: {fileID: 11400000, guid: 1952668756de2ec4bb28c940b6574913, type: 2}
  - m_RefCount: 1
    m_Data: {fileID: 11400000, guid: 6f24c5d85de38f440a452fc2ecbc83ba, type: 2}
  - m_RefCount: 1
    m_Data: {fileID: 11400000, guid: e3f7c49804290514cac891ba8afd0891, type: 2}
  - m_RefCount: 1
    m_Data: {fileID: 11400000, guid: 15aeed29d2870424e99617919f7f0163, type: 2}
  - m_RefCount: 1
    m_Data: {fileID: 11400000, guid: 6cc810e90f1d4a14d86d50475c9b8832, type: 2}
  - m_RefCount: 1
    m_Data: {fileID: 11400000, guid: 3497306e010aa9540acd95595246e205, type: 2}
  - m_RefCount: 1
    m_Data: {fileID: 11400000, guid: 3e9e4f656fa675c4ca050ededcf415b7, type: 2}
  - m_RefCount: 1
    m_Data: {fileID: 11400000, guid: cd8147ccfde531c48931b1687cbbf39a, type: 2}
  - m_RefCount: 1
    m_Data: {fileID: 11400000, guid: 2282371f891dbec45aa648989bf49a33, type: 2}
  - m_RefCount: 1
    m_Data: {fileID: 11400000, guid: ea931f1a8ddd6244499313f1f780e27d, type: 2}
  - m_RefCount: 1
    m_Data: {fileID: 11400000, guid: 4bf1dc4f93bf743488b7d48ac8209984, type: 2}
  - m_RefCount: 1
    m_Data: {fileID: 11400000, guid: fd786a9cbcd7d35418277c9b3667f3e0, type: 2}
  - m_RefCount: 1
    m_Data: {fileID: 11400000, guid: 9d58e61c7e5a7b44e9e6c44b05582be3, type: 2}
  - m_RefCount: 1
    m_Data: {fileID: 11400000, guid: c14f4278a2893154080ab67407ce3d1a, type: 2}
  - m_RefCount: 1
    m_Data: {fileID: 11400000, guid: e7035b9d9c503ff429c76777f2502c1a, type: 2}
  - m_RefCount: 1
    m_Data: {fileID: 11400000, guid: b19f98b6351cdde45b26a66514e6ef70, type: 2}
  - m_RefCount: 1
    m_Data: {fileID: 11400000, guid: b0eec2eb7c6193c448c32ef59996c89c, type: 2}
  - m_RefCount: 1
    m_Data: {fileID: 11400000, guid: 00b0be7a7c1d37f449cb29168018ab13, type: 2}
  - m_RefCount: 1
    m_Data: {fileID: 11400000, guid: 3218f621206189f4395c9dfe5744260d, type: 2}
  - m_RefCount: 1
    m_Data: {fileID: 11400000, guid: b574e52e347c80a4c8e7e6b68d098c4d, type: 2}
  - m_RefCount: 1
    m_Data: {fileID: 11400000, guid: b83e0adee4dba3a46bed966ebac4def7, type: 2}
  - m_RefCount: 1
    m_Data: {fileID: 11400000, guid: 624f514a743d59048b37ab8e51cea81e, type: 2}
  - m_RefCount: 1
    m_Data: {fileID: 11400000, guid: 3761bfa3503f7d04bb95fd584fb3e5fd, type: 2}
  - m_RefCount: 1
    m_Data: {fileID: 11400000, guid: 1f4974f551ab3db4a98e3cc89c817bb1, type: 2}
  - m_RefCount: 1
    m_Data: {fileID: 11400000, guid: 2148210723e96f74e816960a04d6156e, type: 2}
  - m_RefCount: 1
    m_Data: {fileID: 11400000, guid: 4a0af6e57b6bbc54f8e41b2bdcba519e, type: 2}
  - m_RefCount: 1
    m_Data: {fileID: 11400000, guid: aa83b5645f8a4914c916d5629d8ed298, type: 2}
  - m_RefCount: 1
    m_Data: {fileID: 11400000, guid: 48076005f6322a74fb95f8dfe19ea2d0, type: 2}
  - m_RefCount: 1
    m_Data: {fileID: 11400000, guid: aa8f61cbb74554d4697ccb3af06631d3, type: 2}
  - m_RefCount: 1
    m_Data: {fileID: 11400000, guid: 4b48f1d257ecd4148b3a7b16e58e20cf, type: 2}
  - m_RefCount: 1
    m_Data: {fileID: 11400000, guid: b7803f67a561163479e121b3822e930e, type: 2}
  - m_RefCount: 1
    m_Data: {fileID: 11400000, guid: 519ee1713bfaff440b3608427eb58779, type: 2}
  - m_RefCount: 1
    m_Data: {fileID: 11400000, guid: 4a0c5f17f71dc4f439c2b2d896ae3086, type: 2}
  - m_RefCount: 1
    m_Data: {fileID: 11400000, guid: 24d7bc682d5065649a2ba9ea3aeb0f89, type: 2}
  - m_RefCount: 1
    m_Data: {fileID: 11400000, guid: f7e831a8e5742754aa931fba98dd1eb5, type: 2}
  - m_RefCount: 1
    m_Data: {fileID: 11400000, guid: 9b1c745486680db469d0a1cf3b73dc9c, type: 2}
  - m_RefCount: 1
    m_Data: {fileID: 11400000, guid: 62829d62b3ef9f645b124d2d2651b0ff, type: 2}
  - m_RefCount: 1
    m_Data: {fileID: 11400000, guid: 5093db4ceb9f6684d926b5d3c8525072, type: 2}
  - m_RefCount: 1
    m_Data: {fileID: 11400000, guid: 46d55c4b5726b614eab625f4d235bf27, type: 2}
  - m_RefCount: 1
    m_Data: {fileID: 11400000, guid: b99a7b9c7d0e5f942a73b3424d78b5d7, type: 2}
  - m_RefCount: 1
    m_Data: {fileID: 11400000, guid: 3bbac417a56db4b4494bd7394bcb4ae2, type: 2}
  - m_RefCount: 1
    m_Data: {fileID: 11400000, guid: 77485f59e5548e6408f78b93b1597846, type: 2}
  - m_RefCount: 1
    m_Data: {fileID: 11400000, guid: 096696d14aa6f8b49915c17a6daef62f, type: 2}
  - m_RefCount: 1
    m_Data: {fileID: 11400000, guid: 7c932dad750662a4795ac1295db977f9, type: 2}
  - m_RefCount: 1
    m_Data: {fileID: 11400000, guid: ea037b65465c9af448c46f8f76c951d9, type: 2}
  - m_RefCount: 1
    m_Data: {fileID: 11400000, guid: 1caff739ad42164469fb96e27d3466f9, type: 2}
  - m_RefCount: 1
    m_Data: {fileID: 11400000, guid: 22b898bbbc6b93b4fbc6b42124568204, type: 2}
  - m_RefCount: 1
    m_Data: {fileID: 11400000, guid: 47d319aedacd81e429cf8f50fb51ddba, type: 2}
  - m_RefCount: 1
    m_Data: {fileID: 11400000, guid: 17b5cf1ecacb3c34f88d977f1d047950, type: 2}
  - m_RefCount: 1
    m_Data: {fileID: 11400000, guid: 792e3ada55642b24cb8ee2264f52508d, type: 2}
  - m_RefCount: 1
    m_Data: {fileID: 11400000, guid: 1daec031195c14745be03d58be5254cf, type: 2}
  - m_RefCount: 1
    m_Data: {fileID: 11400000, guid: d38ed956fc418154a895682aae7ed641, type: 2}
  - m_RefCount: 1
    m_Data: {fileID: 11400000, guid: d08d6c18e5ce77b46b9bf86ddbca6f4e, type: 2}
  - m_RefCount: 1
    m_Data: {fileID: 11400000, guid: 6de2166131de24c44b64a7592b820318, type: 2}
  - m_RefCount: 1
    m_Data: {fileID: 11400000, guid: e96765a86ecf9b041917a44245ae20c0, type: 2}
  - m_RefCount: 1
    m_Data: {fileID: 11400000, guid: 7b519ccf804af014890a77288cc23270, type: 2}
  - m_RefCount: 1
    m_Data: {fileID: 11400000, guid: a260c36795bc6b64c92040499306ee4a, type: 2}
  - m_RefCount: 1
    m_Data: {fileID: 11400000, guid: 038757b7f0d6db4479ede5329e68f17a, type: 2}
  - m_RefCount: 1
    m_Data: {fileID: 11400000, guid: d09fde12156f1b945827e67a4039d523, type: 2}
  - m_RefCount: 1
    m_Data: {fileID: 11400000, guid: 55c1665937b1ade4fa4989a142c5f92f, type: 2}
  - m_RefCount: 1
    m_Data: {fileID: 11400000, guid: 0627be8fb757c6e4cbc09627c828440b, type: 2}
  - m_RefCount: 1
    m_Data: {fileID: 11400000, guid: be17a82a28694bd4ab77e3e0e56f0ccc, type: 2}
  - m_RefCount: 1
    m_Data: {fileID: 11400000, guid: 142a247081de16746b3b76cae6a30bc8, type: 2}
  - m_RefCount: 1
    m_Data: {fileID: 11400000, guid: 610d28d5151716f4382afce16eaf09b6, type: 2}
  - m_RefCount: 1
    m_Data: {fileID: 11400000, guid: 54a5aaaf0f414e4479b3817159ac883d, type: 2}
  - m_RefCount: 1
    m_Data: {fileID: 11400000, guid: 5b898a77c199b1740be7a35be42645c9, type: 2}
  - m_RefCount: 1
    m_Data: {fileID: 11400000, guid: dac3b8a0bd9a32f48981c5ef7e96282b, type: 2}
  - m_RefCount: 1
    m_Data: {fileID: 11400000, guid: c78c42a64f0c4c24c8827677d9ed5d70, type: 2}
  - m_RefCount: 1
    m_Data: {fileID: 11400000, guid: ae5973bdd6120394cbab1471cda093f1, type: 2}
  - m_RefCount: 1
    m_Data: {fileID: 11400000, guid: 07e4cf2e4093d3246a5361e8cd2c8c9d, type: 2}
  - m_RefCount: 1
    m_Data: {fileID: 11400000, guid: febb41fa39f7a994386dbd6da59ef4b6, type: 2}
  - m_RefCount: 1
    m_Data: {fileID: 11400000, guid: b5d41867438fa834aaa30e01170f48d0, type: 2}
  - m_RefCount: 1
    m_Data: {fileID: 11400000, guid: 6ff0030f2e8153247bd051d8659d4d29, type: 2}
  - m_RefCount: 1
    m_Data: {fileID: 11400000, guid: e335591d1956f3d4ebb5d046de24e287, type: 2}
  - m_RefCount: 1
    m_Data: {fileID: 11400000, guid: 5563f375c5039b74ca058a948f88d219, type: 2}
  - m_RefCount: 1
    m_Data: {fileID: 11400000, guid: 49544ff05e4597e4d8765bf2befb8b65, type: 2}
  - m_RefCount: 1
    m_Data: {fileID: 11400000, guid: 4a223b76aab39e246a3ef610e481708e, type: 2}
  - m_RefCount: 1
    m_Data: {fileID: 11400000, guid: c8df970aaacd96e40901c7d07c7ffde7, type: 2}
  - m_RefCount: 1
    m_Data: {fileID: 11400000, guid: 73e7f92a82097da4ea6e3398bb0ca07c, type: 2}
  - m_RefCount: 1
    m_Data: {fileID: 11400000, guid: 1eec0cae254b6da4dbfae2873ee432bb, type: 2}
  - m_RefCount: 1
    m_Data: {fileID: 11400000, guid: dd25b87ff90d1164bb75b45f94a30a97, type: 2}
  - m_RefCount: 1
    m_Data: {fileID: 11400000, guid: 8124dd842cb0d3c4ab75b93629304596, type: 2}
  - m_RefCount: 1
    m_Data: {fileID: 11400000, guid: 9118f033f29314249b79d88e0827c579, type: 2}
  - m_RefCount: 1
    m_Data: {fileID: 11400000, guid: e5fc965635f4a3e46b3c7634e08c2fe7, type: 2}
  - m_RefCount: 1
    m_Data: {fileID: 11400000, guid: a837877b9defc294da7c4d52f7b6ea32, type: 2}
  - m_RefCount: 1
    m_Data: {fileID: 11400000, guid: 0488cde15f62a814492a2fe220b37375, type: 2}
  - m_RefCount: 1
    m_Data: {fileID: 11400000, guid: ee90173ea862fbd46a53ad14caf0403f, type: 2}
  - m_RefCount: 1
    m_Data: {fileID: 11400000, guid: 9c90572abc37f2b4e9d8d9c4a191f264, type: 2}
  - m_RefCount: 1
    m_Data: {fileID: 11400000, guid: 4951aa60b62b9ce4298467a3b3c76e4b, type: 2}
  - m_RefCount: 1
    m_Data: {fileID: 11400000, guid: 593b6476c796b994fbe1f8883fca0a7a, type: 2}
  - m_RefCount: 1
    m_Data: {fileID: 11400000, guid: 6c161254505fa224a92911cc5460d448, type: 2}
  - m_RefCount: 1
    m_Data: {fileID: 11400000, guid: b3a9d16b8bd446448aefef398a4ff057, type: 2}
  - m_RefCount: 1
    m_Data: {fileID: 11400000, guid: 183e9df5b74252f499e519888ca6cb59, type: 2}
  - m_RefCount: 1
    m_Data: {fileID: 11400000, guid: a8dd2c53a815e7643b4f27372d97905e, type: 2}
  m_TileSpriteArray:
  - m_RefCount: 1
    m_Data: {fileID: 21300000, guid: bd25eba5a653b37418a0dbbab36f69a9, type: 3}
  - m_RefCount: 1
    m_Data: {fileID: 21300000, guid: 0277dc1737d2d2a489ca114384544355, type: 3}
  - m_RefCount: 1
    m_Data: {fileID: 21300002, guid: 0277dc1737d2d2a489ca114384544355, type: 3}
  - m_RefCount: 1
    m_Data: {fileID: 21300004, guid: 0277dc1737d2d2a489ca114384544355, type: 3}
  - m_RefCount: 1
    m_Data: {fileID: 21300006, guid: 0277dc1737d2d2a489ca114384544355, type: 3}
  - m_RefCount: 1
    m_Data: {fileID: 21300008, guid: 0277dc1737d2d2a489ca114384544355, type: 3}
  - m_RefCount: 1
    m_Data: {fileID: 21300010, guid: 0277dc1737d2d2a489ca114384544355, type: 3}
  - m_RefCount: 1
    m_Data: {fileID: 21300012, guid: 0277dc1737d2d2a489ca114384544355, type: 3}
  - m_RefCount: 1
    m_Data: {fileID: 21300014, guid: 0277dc1737d2d2a489ca114384544355, type: 3}
  - m_RefCount: 1
    m_Data: {fileID: 21300016, guid: 0277dc1737d2d2a489ca114384544355, type: 3}
  - m_RefCount: 1
    m_Data: {fileID: 21300018, guid: 0277dc1737d2d2a489ca114384544355, type: 3}
  - m_RefCount: 1
    m_Data: {fileID: 21300020, guid: 0277dc1737d2d2a489ca114384544355, type: 3}
  - m_RefCount: 1
    m_Data: {fileID: 21300022, guid: 0277dc1737d2d2a489ca114384544355, type: 3}
  - m_RefCount: 1
    m_Data: {fileID: 21300024, guid: 0277dc1737d2d2a489ca114384544355, type: 3}
  - m_RefCount: 1
    m_Data: {fileID: 21300026, guid: 0277dc1737d2d2a489ca114384544355, type: 3}
  - m_RefCount: 1
    m_Data: {fileID: 21300028, guid: 0277dc1737d2d2a489ca114384544355, type: 3}
  - m_RefCount: 1
    m_Data: {fileID: 21300030, guid: 0277dc1737d2d2a489ca114384544355, type: 3}
  - m_RefCount: 1
    m_Data: {fileID: 21300032, guid: 0277dc1737d2d2a489ca114384544355, type: 3}
  - m_RefCount: 1
    m_Data: {fileID: 21300034, guid: 0277dc1737d2d2a489ca114384544355, type: 3}
  - m_RefCount: 1
    m_Data: {fileID: 21300036, guid: 0277dc1737d2d2a489ca114384544355, type: 3}
  - m_RefCount: 1
    m_Data: {fileID: 21300038, guid: 0277dc1737d2d2a489ca114384544355, type: 3}
  - m_RefCount: 1
    m_Data: {fileID: 21300040, guid: 0277dc1737d2d2a489ca114384544355, type: 3}
  - m_RefCount: 1
    m_Data: {fileID: 21300042, guid: 0277dc1737d2d2a489ca114384544355, type: 3}
  - m_RefCount: 1
    m_Data: {fileID: 21300044, guid: 0277dc1737d2d2a489ca114384544355, type: 3}
  - m_RefCount: 1
    m_Data: {fileID: 21300046, guid: 0277dc1737d2d2a489ca114384544355, type: 3}
  - m_RefCount: 1
    m_Data: {fileID: 21300048, guid: 0277dc1737d2d2a489ca114384544355, type: 3}
  - m_RefCount: 1
    m_Data: {fileID: 21300050, guid: 0277dc1737d2d2a489ca114384544355, type: 3}
  - m_RefCount: 1
    m_Data: {fileID: 21300052, guid: 0277dc1737d2d2a489ca114384544355, type: 3}
  - m_RefCount: 1
    m_Data: {fileID: 21300054, guid: 0277dc1737d2d2a489ca114384544355, type: 3}
  - m_RefCount: 1
    m_Data: {fileID: 21300056, guid: 0277dc1737d2d2a489ca114384544355, type: 3}
  - m_RefCount: 1
    m_Data: {fileID: 21300058, guid: 0277dc1737d2d2a489ca114384544355, type: 3}
  - m_RefCount: 1
    m_Data: {fileID: 21300060, guid: 0277dc1737d2d2a489ca114384544355, type: 3}
  - m_RefCount: 1
    m_Data: {fileID: 21300062, guid: 0277dc1737d2d2a489ca114384544355, type: 3}
  - m_RefCount: 1
    m_Data: {fileID: 21300064, guid: 0277dc1737d2d2a489ca114384544355, type: 3}
  - m_RefCount: 1
    m_Data: {fileID: 21300066, guid: 0277dc1737d2d2a489ca114384544355, type: 3}
  - m_RefCount: 1
    m_Data: {fileID: 21300068, guid: 0277dc1737d2d2a489ca114384544355, type: 3}
  - m_RefCount: 1
    m_Data: {fileID: 21300070, guid: 0277dc1737d2d2a489ca114384544355, type: 3}
  - m_RefCount: 1
    m_Data: {fileID: 21300072, guid: 0277dc1737d2d2a489ca114384544355, type: 3}
  - m_RefCount: 1
    m_Data: {fileID: 21300074, guid: 0277dc1737d2d2a489ca114384544355, type: 3}
  - m_RefCount: 1
    m_Data: {fileID: 21300076, guid: 0277dc1737d2d2a489ca114384544355, type: 3}
  - m_RefCount: 1
    m_Data: {fileID: 21300078, guid: 0277dc1737d2d2a489ca114384544355, type: 3}
  - m_RefCount: 1
    m_Data: {fileID: 21300080, guid: 0277dc1737d2d2a489ca114384544355, type: 3}
  - m_RefCount: 1
    m_Data: {fileID: 21300082, guid: 0277dc1737d2d2a489ca114384544355, type: 3}
  - m_RefCount: 1
    m_Data: {fileID: 21300084, guid: 0277dc1737d2d2a489ca114384544355, type: 3}
  - m_RefCount: 1
    m_Data: {fileID: 21300086, guid: 0277dc1737d2d2a489ca114384544355, type: 3}
  - m_RefCount: 1
    m_Data: {fileID: 21300088, guid: 0277dc1737d2d2a489ca114384544355, type: 3}
  - m_RefCount: 1
    m_Data: {fileID: 21300090, guid: 0277dc1737d2d2a489ca114384544355, type: 3}
  - m_RefCount: 1
    m_Data: {fileID: 21300092, guid: 0277dc1737d2d2a489ca114384544355, type: 3}
  - m_RefCount: 1
    m_Data: {fileID: 21300094, guid: 0277dc1737d2d2a489ca114384544355, type: 3}
  - m_RefCount: 1
    m_Data: {fileID: 21300096, guid: 0277dc1737d2d2a489ca114384544355, type: 3}
  - m_RefCount: 1
    m_Data: {fileID: 21300098, guid: 0277dc1737d2d2a489ca114384544355, type: 3}
  - m_RefCount: 1
    m_Data: {fileID: 21300100, guid: 0277dc1737d2d2a489ca114384544355, type: 3}
  - m_RefCount: 1
    m_Data: {fileID: 21300102, guid: 0277dc1737d2d2a489ca114384544355, type: 3}
  - m_RefCount: 1
    m_Data: {fileID: 21300104, guid: 0277dc1737d2d2a489ca114384544355, type: 3}
  - m_RefCount: 1
    m_Data: {fileID: 21300106, guid: 0277dc1737d2d2a489ca114384544355, type: 3}
  - m_RefCount: 1
    m_Data: {fileID: 21300108, guid: 0277dc1737d2d2a489ca114384544355, type: 3}
  - m_RefCount: 1
    m_Data: {fileID: 21300110, guid: 0277dc1737d2d2a489ca114384544355, type: 3}
  - m_RefCount: 1
    m_Data: {fileID: 21300112, guid: 0277dc1737d2d2a489ca114384544355, type: 3}
  - m_RefCount: 1
    m_Data: {fileID: 21300114, guid: 0277dc1737d2d2a489ca114384544355, type: 3}
  - m_RefCount: 1
    m_Data: {fileID: 21300116, guid: 0277dc1737d2d2a489ca114384544355, type: 3}
  - m_RefCount: 1
    m_Data: {fileID: 21300118, guid: 0277dc1737d2d2a489ca114384544355, type: 3}
  - m_RefCount: 1
    m_Data: {fileID: 21300120, guid: 0277dc1737d2d2a489ca114384544355, type: 3}
  - m_RefCount: 1
    m_Data: {fileID: 21300122, guid: 0277dc1737d2d2a489ca114384544355, type: 3}
  - m_RefCount: 1
    m_Data: {fileID: 21300124, guid: 0277dc1737d2d2a489ca114384544355, type: 3}
  - m_RefCount: 1
    m_Data: {fileID: 21300126, guid: 0277dc1737d2d2a489ca114384544355, type: 3}
  - m_RefCount: 1
    m_Data: {fileID: 21300128, guid: 0277dc1737d2d2a489ca114384544355, type: 3}
  - m_RefCount: 1
    m_Data: {fileID: 21300130, guid: 0277dc1737d2d2a489ca114384544355, type: 3}
  - m_RefCount: 1
    m_Data: {fileID: 21300132, guid: 0277dc1737d2d2a489ca114384544355, type: 3}
  - m_RefCount: 1
    m_Data: {fileID: 21300134, guid: 0277dc1737d2d2a489ca114384544355, type: 3}
  - m_RefCount: 1
    m_Data: {fileID: 21300136, guid: 0277dc1737d2d2a489ca114384544355, type: 3}
  - m_RefCount: 1
    m_Data: {fileID: 21300138, guid: 0277dc1737d2d2a489ca114384544355, type: 3}
  - m_RefCount: 1
    m_Data: {fileID: 21300140, guid: 0277dc1737d2d2a489ca114384544355, type: 3}
  - m_RefCount: 1
    m_Data: {fileID: 21300142, guid: 0277dc1737d2d2a489ca114384544355, type: 3}
  - m_RefCount: 1
    m_Data: {fileID: 21300144, guid: 0277dc1737d2d2a489ca114384544355, type: 3}
  - m_RefCount: 1
    m_Data: {fileID: 21300146, guid: 0277dc1737d2d2a489ca114384544355, type: 3}
  - m_RefCount: 1
    m_Data: {fileID: 21300148, guid: 0277dc1737d2d2a489ca114384544355, type: 3}
  - m_RefCount: 1
    m_Data: {fileID: 21300150, guid: 0277dc1737d2d2a489ca114384544355, type: 3}
  - m_RefCount: 1
    m_Data: {fileID: 21300152, guid: 0277dc1737d2d2a489ca114384544355, type: 3}
  - m_RefCount: 1
    m_Data: {fileID: 21300154, guid: 0277dc1737d2d2a489ca114384544355, type: 3}
  - m_RefCount: 1
    m_Data: {fileID: 21300156, guid: 0277dc1737d2d2a489ca114384544355, type: 3}
  - m_RefCount: 1
    m_Data: {fileID: 21300158, guid: 0277dc1737d2d2a489ca114384544355, type: 3}
  - m_RefCount: 1
    m_Data: {fileID: 21300160, guid: 0277dc1737d2d2a489ca114384544355, type: 3}
  - m_RefCount: 1
    m_Data: {fileID: 21300162, guid: 0277dc1737d2d2a489ca114384544355, type: 3}
  - m_RefCount: 1
    m_Data: {fileID: 21300164, guid: 0277dc1737d2d2a489ca114384544355, type: 3}
  - m_RefCount: 1
    m_Data: {fileID: 21300166, guid: 0277dc1737d2d2a489ca114384544355, type: 3}
  - m_RefCount: 1
    m_Data: {fileID: 21300168, guid: 0277dc1737d2d2a489ca114384544355, type: 3}
  - m_RefCount: 1
    m_Data: {fileID: 21300170, guid: 0277dc1737d2d2a489ca114384544355, type: 3}
  - m_RefCount: 1
    m_Data: {fileID: 21300172, guid: 0277dc1737d2d2a489ca114384544355, type: 3}
  - m_RefCount: 1
    m_Data: {fileID: 21300174, guid: 0277dc1737d2d2a489ca114384544355, type: 3}
  - m_RefCount: 1
    m_Data: {fileID: 21300176, guid: 0277dc1737d2d2a489ca114384544355, type: 3}
  - m_RefCount: 1
    m_Data: {fileID: 21300178, guid: 0277dc1737d2d2a489ca114384544355, type: 3}
  - m_RefCount: 1
    m_Data: {fileID: 21300180, guid: 0277dc1737d2d2a489ca114384544355, type: 3}
  - m_RefCount: 1
    m_Data: {fileID: 21300182, guid: 0277dc1737d2d2a489ca114384544355, type: 3}
  - m_RefCount: 1
    m_Data: {fileID: 21300184, guid: 0277dc1737d2d2a489ca114384544355, type: 3}
  - m_RefCount: 1
    m_Data: {fileID: 21300186, guid: 0277dc1737d2d2a489ca114384544355, type: 3}
  - m_RefCount: 1
    m_Data: {fileID: 21300188, guid: 0277dc1737d2d2a489ca114384544355, type: 3}
  - m_RefCount: 1
    m_Data: {fileID: 21300190, guid: 0277dc1737d2d2a489ca114384544355, type: 3}
  - m_RefCount: 1
    m_Data: {fileID: 21300192, guid: 0277dc1737d2d2a489ca114384544355, type: 3}
  - m_RefCount: 1
    m_Data: {fileID: 21300194, guid: 0277dc1737d2d2a489ca114384544355, type: 3}
  - m_RefCount: 1
    m_Data: {fileID: 21300196, guid: 0277dc1737d2d2a489ca114384544355, type: 3}
  - m_RefCount: 1
    m_Data: {fileID: 21300198, guid: 0277dc1737d2d2a489ca114384544355, type: 3}
  - m_RefCount: 1
    m_Data: {fileID: 21300200, guid: 0277dc1737d2d2a489ca114384544355, type: 3}
  - m_RefCount: 1
    m_Data: {fileID: 21300202, guid: 0277dc1737d2d2a489ca114384544355, type: 3}
  - m_RefCount: 1
    m_Data: {fileID: 21300204, guid: 0277dc1737d2d2a489ca114384544355, type: 3}
  - m_RefCount: 1
    m_Data: {fileID: 21300206, guid: 0277dc1737d2d2a489ca114384544355, type: 3}
  - m_RefCount: 1
    m_Data: {fileID: 21300208, guid: 0277dc1737d2d2a489ca114384544355, type: 3}
  - m_RefCount: 1
    m_Data: {fileID: 21300210, guid: 0277dc1737d2d2a489ca114384544355, type: 3}
  - m_RefCount: 1
    m_Data: {fileID: 21300212, guid: 0277dc1737d2d2a489ca114384544355, type: 3}
  - m_RefCount: 1
    m_Data: {fileID: 21300214, guid: 0277dc1737d2d2a489ca114384544355, type: 3}
  - m_RefCount: 1
    m_Data: {fileID: 21300216, guid: 0277dc1737d2d2a489ca114384544355, type: 3}
  - m_RefCount: 1
    m_Data: {fileID: 21300218, guid: 0277dc1737d2d2a489ca114384544355, type: 3}
  - m_RefCount: 1
    m_Data: {fileID: 21300220, guid: 0277dc1737d2d2a489ca114384544355, type: 3}
  - m_RefCount: 1
    m_Data: {fileID: 21300222, guid: 0277dc1737d2d2a489ca114384544355, type: 3}
  - m_RefCount: 1
    m_Data: {fileID: 21300224, guid: 0277dc1737d2d2a489ca114384544355, type: 3}
  - m_RefCount: 1
    m_Data: {fileID: 21300226, guid: 0277dc1737d2d2a489ca114384544355, type: 3}
  - m_RefCount: 1
    m_Data: {fileID: 21300228, guid: 0277dc1737d2d2a489ca114384544355, type: 3}
  - m_RefCount: 1
    m_Data: {fileID: 21300230, guid: 0277dc1737d2d2a489ca114384544355, type: 3}
  - m_RefCount: 1
    m_Data: {fileID: 21300232, guid: 0277dc1737d2d2a489ca114384544355, type: 3}
  - m_RefCount: 1
    m_Data: {fileID: 21300234, guid: 0277dc1737d2d2a489ca114384544355, type: 3}
  - m_RefCount: 1
    m_Data: {fileID: 21300236, guid: 0277dc1737d2d2a489ca114384544355, type: 3}
  - m_RefCount: 1
    m_Data: {fileID: 21300238, guid: 0277dc1737d2d2a489ca114384544355, type: 3}
  - m_RefCount: 1
    m_Data: {fileID: 21300240, guid: 0277dc1737d2d2a489ca114384544355, type: 3}
  - m_RefCount: 1
    m_Data: {fileID: 21300242, guid: 0277dc1737d2d2a489ca114384544355, type: 3}
  - m_RefCount: 1
    m_Data: {fileID: 21300244, guid: 0277dc1737d2d2a489ca114384544355, type: 3}
  - m_RefCount: 1
    m_Data: {fileID: 21300246, guid: 0277dc1737d2d2a489ca114384544355, type: 3}
  - m_RefCount: 1
    m_Data: {fileID: 21300248, guid: 0277dc1737d2d2a489ca114384544355, type: 3}
  - m_RefCount: 1
    m_Data: {fileID: 21300250, guid: 0277dc1737d2d2a489ca114384544355, type: 3}
  - m_RefCount: 1
    m_Data: {fileID: 21300252, guid: 0277dc1737d2d2a489ca114384544355, type: 3}
  - m_RefCount: 1
    m_Data: {fileID: 21300254, guid: 0277dc1737d2d2a489ca114384544355, type: 3}
  - m_RefCount: 1
    m_Data: {fileID: 21300256, guid: 0277dc1737d2d2a489ca114384544355, type: 3}
  - m_RefCount: 1
    m_Data: {fileID: 21300258, guid: 0277dc1737d2d2a489ca114384544355, type: 3}
  - m_RefCount: 1
    m_Data: {fileID: 21300260, guid: 0277dc1737d2d2a489ca114384544355, type: 3}
  - m_RefCount: 1
    m_Data: {fileID: 21300262, guid: 0277dc1737d2d2a489ca114384544355, type: 3}
  - m_RefCount: 1
    m_Data: {fileID: 21300264, guid: 0277dc1737d2d2a489ca114384544355, type: 3}
  - m_RefCount: 1
    m_Data: {fileID: 21300266, guid: 0277dc1737d2d2a489ca114384544355, type: 3}
  - m_RefCount: 1
    m_Data: {fileID: 21300268, guid: 0277dc1737d2d2a489ca114384544355, type: 3}
  - m_RefCount: 1
    m_Data: {fileID: 21300270, guid: 0277dc1737d2d2a489ca114384544355, type: 3}
  - m_RefCount: 1
    m_Data: {fileID: 21300272, guid: 0277dc1737d2d2a489ca114384544355, type: 3}
  - m_RefCount: 1
    m_Data: {fileID: 21300274, guid: 0277dc1737d2d2a489ca114384544355, type: 3}
  - m_RefCount: 1
    m_Data: {fileID: 21300276, guid: 0277dc1737d2d2a489ca114384544355, type: 3}
  - m_RefCount: 1
    m_Data: {fileID: 21300278, guid: 0277dc1737d2d2a489ca114384544355, type: 3}
  - m_RefCount: 1
    m_Data: {fileID: 21300280, guid: 0277dc1737d2d2a489ca114384544355, type: 3}
  - m_RefCount: 1
    m_Data: {fileID: 21300282, guid: 0277dc1737d2d2a489ca114384544355, type: 3}
  - m_RefCount: 1
    m_Data: {fileID: 21300284, guid: 0277dc1737d2d2a489ca114384544355, type: 3}
  - m_RefCount: 1
    m_Data: {fileID: 21300286, guid: 0277dc1737d2d2a489ca114384544355, type: 3}
  - m_RefCount: 1
    m_Data: {fileID: 21300288, guid: 0277dc1737d2d2a489ca114384544355, type: 3}
  - m_RefCount: 1
    m_Data: {fileID: 21300290, guid: 0277dc1737d2d2a489ca114384544355, type: 3}
  - m_RefCount: 1
    m_Data: {fileID: 21300292, guid: 0277dc1737d2d2a489ca114384544355, type: 3}
  - m_RefCount: 1
    m_Data: {fileID: 21300294, guid: 0277dc1737d2d2a489ca114384544355, type: 3}
  - m_RefCount: 1
    m_Data: {fileID: 21300296, guid: 0277dc1737d2d2a489ca114384544355, type: 3}
  - m_RefCount: 1
    m_Data: {fileID: 21300298, guid: 0277dc1737d2d2a489ca114384544355, type: 3}
  - m_RefCount: 1
    m_Data: {fileID: 21300300, guid: 0277dc1737d2d2a489ca114384544355, type: 3}
  - m_RefCount: 1
    m_Data: {fileID: 21300302, guid: 0277dc1737d2d2a489ca114384544355, type: 3}
  - m_RefCount: 1
    m_Data: {fileID: 21300304, guid: 0277dc1737d2d2a489ca114384544355, type: 3}
  - m_RefCount: 1
    m_Data: {fileID: 21300306, guid: 0277dc1737d2d2a489ca114384544355, type: 3}
  - m_RefCount: 1
    m_Data: {fileID: 21300308, guid: 0277dc1737d2d2a489ca114384544355, type: 3}
  - m_RefCount: 1
    m_Data: {fileID: 21300310, guid: 0277dc1737d2d2a489ca114384544355, type: 3}
  - m_RefCount: 1
    m_Data: {fileID: 21300312, guid: 0277dc1737d2d2a489ca114384544355, type: 3}
  - m_RefCount: 1
    m_Data: {fileID: 21300314, guid: 0277dc1737d2d2a489ca114384544355, type: 3}
  - m_RefCount: 1
    m_Data: {fileID: 21300316, guid: 0277dc1737d2d2a489ca114384544355, type: 3}
  - m_RefCount: 1
    m_Data: {fileID: 21300318, guid: 0277dc1737d2d2a489ca114384544355, type: 3}
  - m_RefCount: 1
    m_Data: {fileID: 21300320, guid: 0277dc1737d2d2a489ca114384544355, type: 3}
  - m_RefCount: 1
    m_Data: {fileID: 21300322, guid: 0277dc1737d2d2a489ca114384544355, type: 3}
  - m_RefCount: 1
    m_Data: {fileID: 21300324, guid: 0277dc1737d2d2a489ca114384544355, type: 3}
  - m_RefCount: 1
    m_Data: {fileID: 21300326, guid: 0277dc1737d2d2a489ca114384544355, type: 3}
  - m_RefCount: 1
    m_Data: {fileID: 21300328, guid: 0277dc1737d2d2a489ca114384544355, type: 3}
  - m_RefCount: 1
    m_Data: {fileID: 21300330, guid: 0277dc1737d2d2a489ca114384544355, type: 3}
  - m_RefCount: 1
    m_Data: {fileID: 21300332, guid: 0277dc1737d2d2a489ca114384544355, type: 3}
  - m_RefCount: 1
    m_Data: {fileID: 21300334, guid: 0277dc1737d2d2a489ca114384544355, type: 3}
  - m_RefCount: 1
    m_Data: {fileID: 21300336, guid: 0277dc1737d2d2a489ca114384544355, type: 3}
  - m_RefCount: 1
    m_Data: {fileID: 21300338, guid: 0277dc1737d2d2a489ca114384544355, type: 3}
  - m_RefCount: 1
    m_Data: {fileID: 21300340, guid: 0277dc1737d2d2a489ca114384544355, type: 3}
  - m_RefCount: 1
    m_Data: {fileID: 21300342, guid: 0277dc1737d2d2a489ca114384544355, type: 3}
  - m_RefCount: 1
    m_Data: {fileID: 21300344, guid: 0277dc1737d2d2a489ca114384544355, type: 3}
  - m_RefCount: 1
    m_Data: {fileID: 21300346, guid: 0277dc1737d2d2a489ca114384544355, type: 3}
  - m_RefCount: 1
    m_Data: {fileID: 21300348, guid: 0277dc1737d2d2a489ca114384544355, type: 3}
  - m_RefCount: 1
    m_Data: {fileID: 21300350, guid: 0277dc1737d2d2a489ca114384544355, type: 3}
  - m_RefCount: 1
    m_Data: {fileID: 21300352, guid: 0277dc1737d2d2a489ca114384544355, type: 3}
  - m_RefCount: 1
    m_Data: {fileID: 21300354, guid: 0277dc1737d2d2a489ca114384544355, type: 3}
  - m_RefCount: 1
    m_Data: {fileID: 21300356, guid: 0277dc1737d2d2a489ca114384544355, type: 3}
  - m_RefCount: 1
    m_Data: {fileID: 21300358, guid: 0277dc1737d2d2a489ca114384544355, type: 3}
  - m_RefCount: 1
    m_Data: {fileID: 21300360, guid: 0277dc1737d2d2a489ca114384544355, type: 3}
  - m_RefCount: 1
    m_Data: {fileID: 21300362, guid: 0277dc1737d2d2a489ca114384544355, type: 3}
  - m_RefCount: 1
    m_Data: {fileID: 21300364, guid: 0277dc1737d2d2a489ca114384544355, type: 3}
  - m_RefCount: 1
    m_Data: {fileID: 21300366, guid: 0277dc1737d2d2a489ca114384544355, type: 3}
  - m_RefCount: 1
    m_Data: {fileID: 21300368, guid: 0277dc1737d2d2a489ca114384544355, type: 3}
  - m_RefCount: 1
    m_Data: {fileID: 21300370, guid: 0277dc1737d2d2a489ca114384544355, type: 3}
  - m_RefCount: 1
    m_Data: {fileID: 21300372, guid: 0277dc1737d2d2a489ca114384544355, type: 3}
  - m_RefCount: 1
    m_Data: {fileID: 21300374, guid: 0277dc1737d2d2a489ca114384544355, type: 3}
  - m_RefCount: 1
    m_Data: {fileID: 21300376, guid: 0277dc1737d2d2a489ca114384544355, type: 3}
  - m_RefCount: 1
    m_Data: {fileID: 21300378, guid: 0277dc1737d2d2a489ca114384544355, type: 3}
  - m_RefCount: 1
    m_Data: {fileID: 21300380, guid: 0277dc1737d2d2a489ca114384544355, type: 3}
  - m_RefCount: 1
    m_Data: {fileID: 21300382, guid: 0277dc1737d2d2a489ca114384544355, type: 3}
  - m_RefCount: 1
    m_Data: {fileID: 21300384, guid: 0277dc1737d2d2a489ca114384544355, type: 3}
  - m_RefCount: 1
    m_Data: {fileID: 21300386, guid: 0277dc1737d2d2a489ca114384544355, type: 3}
  - m_RefCount: 1
    m_Data: {fileID: 21300388, guid: 0277dc1737d2d2a489ca114384544355, type: 3}
  - m_RefCount: 1
    m_Data: {fileID: 21300390, guid: 0277dc1737d2d2a489ca114384544355, type: 3}
  m_TileMatrixArray:
  - m_RefCount: 197
    m_Data:
      e00: 1
      e01: 0
      e02: 0
      e03: 0
      e10: 0
      e11: 1
      e12: 0
      e13: 0
      e20: 0
      e21: 0
      e22: 1
      e23: 0
      e30: 0
      e31: 0
      e32: 0
      e33: 1
  m_TileColorArray:
  - m_RefCount: 197
    m_Data: {r: 1, g: 1, b: 1, a: 1}
  m_AnimationFrameRate: 1
  m_Color: {r: 1, g: 1, b: 1, a: 1}
  m_Origin: {x: -49, y: 0, z: 0}
  m_Size: {x: 49, y: 42, z: 1}
  m_TileAnchor: {x: 0.5, y: 0.5, z: 0}
  m_TileOrientation: 0
  m_TileOrientationMatrix:
    e00: 1
    e01: 0
    e02: 0
    e03: 0
    e10: 0
    e11: 1
    e12: 0
    e13: 0
    e20: 0
    e21: 0
    e22: 1
    e23: 0
    e30: 0
    e31: 0
    e32: 0
    e33: 1
